0 8.62072e-11 6.824e-11 0.184949 8.62072e-11 8.62072e-11 0.788512 2.76372e-11 8.62072e-11 8.62072e-11 6.84758e-11 6.60446e-11 0.0147817 6.8301e-11 8.62072e-11 0.00996547 8.62072e-11 8.62072e-11 8.62072e-11 2.74941e-11 6.90046e-11 6.82382e-11 8.62072e-11 8.62072e-11 8.62072e-11 8.62072e-11 3.00678e-11 5.987e-11 5.8725e-11 0.000253405 0.000400308 8.62072e-11 8.62072e-11 8.62072e-11 8.62072e-11 8.62072e-11 2.75086e-11 8.62072e-11 8.62072e-11 8.62072e-11 8.62072e-11 8.62072e-11 8.62072e-11 8.62072e-11 8.62072e-11 8.62072e-11 8.62072e-11 6.82911e-11 8.62072e-11 8.62072e-11 8.62072e-11 3.82502e-11 2.76628e-11 3.83695e-11 2.75176e-11 6.83511e-11 8.62072e-11 8.62072e-11 8.62072e-11 6.84018e-11 6.90377e-11 4.98712e-11 6.84758e-11 8.62072e-11 8.62072e-11 8.62072e-11 7.82964e-11 8.62072e-11 6.61004e-11 8.62072e-11 8.62072e-11 8.62072e-11 8.62072e-11 8.62072e-11 7.83131e-11 2.75647e-11 8.62072e-11 8.62072e-11 6.61004e-11 8.62072e-11 8.62072e-11 8.62072e-11 6.62275e-11 8.62072e-11 6.83511e-11 3.82115e-11 8.62072e-11 8.62072e-11 8.62072e-11 8.62072e-11 6.61459e-11 8.62072e-11 2.75215e-11 8.62072e-11 2.84301e-11 3.83464e-11 8.62072e-11 3.83317e-11 9.17827e-11 9.17827e-11 8.62072e-11 8.62072e-11 8.62072e-11 6.61044e-11 6.84373e-11 8.62072e-11 6.60709e-11 8.62072e-11 8.62072e-11 6.61459e-11 8.62072e-11 6.83218e-11 8.62072e-11 8.62072e-11 6.60355e-11 3.01035e-11 8.62072e-11 4.98195e-11 8.62072e-11 5.9974e-11 9.17827e-11 8.62072e-11 8.62072e-11 3.82958e-11 1e-10 9.99998e-11 8.62072e-11 8.62072e-11 8.62072e-11 4.98454e-11 8.62072e-11 8.62072e-11 5.99158e-11 8.62072e-11 1e-10 9.89566e-11 8.78416e-11 0.000253599 0.000884094 9.81511e-11 8.62072e-11 
1 2.90743e-11 1.01474e-11 0.986509 9.69462e-11 1.12488e-11 9.69462e-11 9.69462e-11 9.69462e-11 1.06602e-11 9.69462e-11 9.69462e-11 1.12452e-11 1.88491e-11 9.69462e-11 9.69462e-11 6.96802e-11 6.96802e-11 1.50706e-11 5.30143e-11 9.69462e-11 1.37073e-11 9.69462e-11 9.69462e-11 3.96318e-11 9.69462e-11 9.69462e-11 1.50706e-11 9.69462e-11 9.69462e-11 9.69462e-11 9.69462e-11 6.24902e-11 0.000996283 9.79581e-11 9.69462e-11 9.69462e-11 6.24902e-11 1.37073e-11 5.30143e-11 9.69462e-11 9.69462e-11 9.69462e-11 9.69462e-11 9.69462e-11 9.69462e-11 9.69462e-11 9.69462e-11 9.69462e-11 3.96318e-11 6.96802e-11 1.50706e-11 9.69462e-11 9.69462e-11 9.69462e-11 1.88491e-11 9.69462e-11 9.69462e-11 6.96802e-11 9.69462e-11 3.96318e-11 9.69462e-11 9.69462e-11 1.37073e-11 6.96802e-11 4.15324e-11 1.49797e-11 1.49797e-11 6.96802e-11 9.69462e-11 3.39429e-11 9.69462e-11 1.01807e-11 5.30143e-11 3.96318e-11 9.69462e-11 9.69462e-11 6.96802e-11 9.69462e-11 6.96802e-11 5.30143e-11 9.69462e-11 9.69462e-11 5.30143e-11 1.37041e-11 3.96318e-11 6.96802e-11 0.0111834 5.30143e-11 9.69462e-11 9.69462e-11 3.96318e-11 1.50706e-11 9.69462e-11 9.69462e-11 9.69462e-11 9.69462e-11 9.69462e-11 2.90743e-11 1.49797e-11 9.69462e-11 5.30143e-11 0.00131123 9.9917e-11 9.69462e-11 1.49797e-11 3.96318e-11 9.69462e-11 9.69462e-11 1.50706e-11 4.11721e-11 9.69462e-11 1.51106e-11 9.69462e-11 9.69462e-11 3.96318e-11 9.69462e-11 9.69462e-11 1.06619e-11 9.69462e-11 9.69462e-11 2.76633e-11 3.96318e-11 4.12217e-11 9.69462e-11 6.24902e-11 6.24902e-11 9.79581e-11 1.37041e-11 6.96802e-11 9.69462e-11 9.69462e-11 9.69462e-11 9.69462e-11 9.69462e-11 3.96318e-11 9.69462e-11 1.37077e-11 6.24902e-11 9.69462e-11 5.30143e-11 
2 5.02615e-11 1.36033e-11 0.643239 9.97981e-11 3.94559e-11 0.323047 9.97981e-11 9.97981e-11 9.97981e-11 1.79598e-11 2.99293e-11 3.99771e-07 9.97981e-11 9.97981e-11 0.029868 3.73804e-11 9.97981e-11 2.01978e-11 2.99311e-11 7.04484e-11 1.36331e-11 2.21192e-11 9.97981e-11 2.99256e-11 9.97981e-11 2.21679e-11 7.04413e-11 2.98866e-11 9.98266e-11 9.97981e-11 9.97981e-11 9.97981e-11 0.000510031 1e-10 9.97981e-11 2.25575e-07 0.00333513 9.97981e-11 9.98016e-11 3.94508e-11 3.94508e-11 1.79598e-11 9.98016e-11 3.7439e-11 9.97981e-11 3.74042e-11 1.415e-11 1.415e-11 9.97981e-11 3.73804e-11 1.35875e-11 9.98016e-11 3.73817e-11 1.79598e-11 3.94484e-11 2.2088e-11 3.7392e-11 4.11738e-11 3.31868e-11 3.73817e-11 9.97981e-11 9.98016e-11 9.97981e-11 9.97981e-11 9.97981e-11 9.97981e-11 9.97981e-11 2.21533e-11 1.35783e-11 1.36134e-11 1.35656e-11 9.97981e-11 2.99141e-11 9.97981e-11 9.97981e-11 2.21617e-11 9.97981e-11 9.97981e-11 4.05842e-11 9.97981e-11 9.97981e-11 9.98016e-11 9.97981e-11 9.97981e-11 2.2136e-11 9.97981e-11 2.2088e-11 2.21466e-11 2.99379e-11 3.74255e-11 9.97981e-11 9.97981e-11 2.9893e-11 9.97981e-11 2.98499e-11 3.73817e-11 3.74255e-11 3.74126e-11 9.97981e-11 2.21289e-11 2.21086e-11 9.97981e-11 9.97981e-11 9.97981e-11 9.97981e-11 3.73817e-11 3.74255e-11 9.97981e-11 3.31868e-11 9.98016e-11 9.97981e-11 4.05465e-11 9.97981e-11 7.04484e-11 9.97981e-11 3.01596e-11 2.98767e-11 4.05842e-11 7.04317e-11 2.99017e-11 7.04413e-11 3.01695e-11 7.04484e-11 2.98767e-11 1.35945e-11 2.20951e-11 9.97981e-11 9.97981e-11 9.98016e-11 9.98016e-11 9.97981e-11 9.97981e-11 1.36033e-11 1.35959e-11 3.01995e-11 7.04484e-11 3.74255e-11 1.36264e-11 2.21771e-11 9.97981e-11 
3 2.95864e-11 3.18094e-11 0.991634 3.69167e-11 2.95864e-11 0.0073578 2.95864e-11 3.89973e-11 3.68619e-11 4.31503e-11 2.95864e-11 5.98908e-11 4.31341e-11 2.95864e-11 2.95864e-11 2.95864e-11 4.3253e-11 3.89558e-11 8.40738e-11 3.68619e-11 3.89558e-11 4.31811e-11 5.8966e-11 2.79483e-11 4.47111e-11 2.95864e-11 1.86831e-11 2.95864e-11 9.98132e-11 9.98132e-11 9.48501e-11 9.55568e-11 1.89852e-11 3.89558e-11 3.89558e-11 3.18094e-11 4.4771e-11 3.68562e-11 3.17841e-11 3.68244e-11 8.99288e-11 3.89973e-11 3.89558e-11 8.40738e-11 3.68795e-11 2.95696e-11 3.68795e-11 4.31811e-11 3.68619e-11 3.18094e-11 5.98908e-11 5.98908e-11 3.18094e-11 2.95864e-11 4.55551e-11 2.95727e-11 9.48056e-11 8.99288e-11 3.30217e-11 3.89418e-11 8.99288e-11 3.68562e-11 2.95864e-11 3.68619e-11 2.95864e-11 5.98908e-11 2.95864e-11 2.95696e-11 1.21612e-11 3.89558e-11 3.18094e-11 4.47111e-11 4.41631e-11 2.95864e-11 2.95696e-11 2.95864e-11 2.95696e-11 3.68569e-11 5.8966e-11 9.73074e-11 9.48501e-11 3.89418e-11 2.78458e-11 3.99582e-11 2.95864e-11 2.95864e-11 3.89558e-11 1.90472e-11 5.98908e-11 5.8966e-11 3.30217e-11 3.89558e-11 2.95864e-11 3.68569e-11 2.95696e-11 4.48194e-11 3.89558e-11 0.00084221 0.000166066 9.48501e-11 9.55568e-11 2.95864e-11 3.68569e-11 3.30217e-11 3.68562e-11 3.18094e-11 4.41631e-11 3.30217e-11 2.78659e-11 8.40738e-11 3.89973e-11 3.30217e-11 5.8966e-11 3.30217e-11 3.18094e-11 3.68562e-11 2.95864e-11 2.95864e-11 2.79066e-11 2.95864e-11 4.3253e-11 8.40738e-11 4.56353e-11 9.55568e-11 9.48501e-11 9.48501e-11 3.89418e-11 3.30217e-11 4.41424e-11 3.18094e-11 2.95864e-11 2.95864e-11 3.68569e-11 2.95864e-11 5.8966e-11 2.95864e-11 3.68795e-11 3.30217e-11 5.98908e-11 5.98908e-11 
4 2.73369e-11 1.41446e-11 0.53464 1.40239e-11 4.49702e-11 0.364761 8.48152e-11 3.46699e-11 2.73418e-11 7.06715e-11 4.49702e-11 0.0757611 2.75114e-11 7.06715e-11 0.000480383 1.41533e-11 4.49702e-11 1.45516e-11 4.49587e-11 9.76412e-11 1.41446e-11 9.05698e-07 0.000680706 9.76412e-11 0.000520619 1e-10 9.76412e-11 9.76412e-11 0.00378005 0.00560235 9.76412e-11 9.76412e-11 0.00532332 1e-10 9.33138e-11 1.39816e-05 0.00843612 1.296e-11 1.29509e-11 5.0146e-11 2.91408e-11 1.34859e-11 1.46259e-11 2.75893e-11 1.40153e-11 1.40103e-11 2.76584e-11 4.49702e-11 7.06715e-11 2.91309e-11 1.40027e-11 4.49702e-11 6.92794e-11 2.98214e-11 2.91398e-11 4.49702e-11 9.33138e-11 3.46699e-11 9.76412e-11 4.49702e-11 1.40103e-11 1.45593e-11 4.49702e-11 9.76412e-11 1.46382e-11 1.29485e-11 9.76412e-11 2.73418e-11 1.29729e-11 1.34756e-11 6.92794e-11 1.46422e-11 5.0146e-11 1.4583e-11 1.40153e-11 4.49639e-11 9.76412e-11 9.76412e-11 9.76412e-11 9.76412e-11 9.4029e-11 6.92794e-11 5.0146e-11 1.40347e-11 1.40027e-11 2.75101e-11 9.35188e-11 1.46382e-11 7.06715e-11 1.4585e-11 2.09641e-11 7.03573e-11 1.46145e-11 9.76412e-11 9.76412e-11 9.76412e-11 9.76412e-11 9.76412e-11 9.76412e-11 9.76412e-11 9.76412e-11 9.76412e-11 9.76412e-11 3.46699e-11 4.49702e-11 1.46216e-11 4.49702e-11 1.40153e-11 7.06715e-11 9.33138e-11 1.29509e-11 9.33138e-11 9.76412e-11 9.33138e-11 1.29571e-11 2.98145e-11 3.46699e-11 9.76412e-11 9.76412e-11 9.76412e-11 9.76412e-11 9.76412e-11 9.76412e-11 9.76412e-11 9.76412e-11 9.33138e-11 9.76412e-11 9.76412e-11 9.76412e-11 9.76412e-11 2.09641e-11 9.33138e-11 3.46699e-11 2.75114e-11 1.41533e-11 1.45725e-11 1.296e-11 1.29729e-11 1.41563e-11 1.41574e-11 
5 3.79325e-11 1.19545e-11 0.785885 3.7856e-11 3.96223e-11 0.182464 3.78494e-11 3.78494e-11 0.0316518 3.94841e-11 3.78494e-11 3.78494e-11 3.78494e-11 3.78494e-11 3.78494e-11 3.78494e-11 3.84239e-11 3.78494e-11 4.59914e-11 3.84348e-11 4.99745e-11 2.65349e-11 3.84239e-11 3.78494e-11 3.94567e-11 5.73777e-11 4.51928e-11 4.08363e-11 3.98914e-11 3.84239e-11 3.41074e-11 3.78494e-11 6.27628e-11 2.13111e-11 3.78494e-11 3.7856e-11 5.7418e-11 3.4099e-11 3.78494e-11 4.60807e-11 5.00131e-11 3.7856e-11 3.78494e-11 4.60964e-11 3.78494e-11 3.78494e-11 3.78965e-11 3.78965e-11 1.06686e-11 2.12749e-11 2.12269e-11 3.41534e-11 4.60308e-11 3.78494e-11 3.78494e-11 4.51928e-11 4.51928e-11 3.78494e-11 4.60276e-11 3.78494e-11 3.78494e-11 3.84239e-11 3.95075e-11 3.78494e-11 3.78879e-11 3.4045e-11 4.72808e-11 3.78494e-11 3.78494e-11 9.52756e-11 3.78965e-11 3.78494e-11 1.08776e-11 4.0797e-11 3.78494e-11 3.95943e-11 3.78494e-11 5.2648e-11 2.65349e-11 5.2648e-11 1.09265e-11 3.78494e-11 3.84239e-11 3.40953e-11 3.7856e-11 3.94841e-11 3.84239e-11 1.20196e-11 4.02961e-11 4.59914e-11 9.88932e-11 3.78494e-11 4.99745e-11 3.84239e-11 3.78494e-11 1.19659e-11 2.65349e-11 9.52769e-11 3.1793e-11 3.84239e-11 1.20085e-11 4.07774e-11 3.39985e-11 3.78494e-11 4.02549e-11 3.39985e-11 6.79404e-11 4.09076e-11 3.84239e-11 3.78965e-11 1.47062e-11 5.75999e-11 4.72808e-11 3.78494e-11 2.13058e-11 3.78494e-11 3.78494e-11 6.62164e-11 3.78965e-11 5.44742e-11 5.45236e-11 3.84239e-11 3.96253e-11 3.78494e-11 4.99745e-11 3.78494e-11 3.78494e-11 4.99745e-11 4.08702e-11 4.60276e-11 3.78494e-11 3.78965e-11 3.84239e-11 8.07268e-11 3.84239e-11 3.96499e-11 1.19943e-11 3.78494e-11 3.97702e-11 4.51928e-11 
6 6.48874e-11 6.48874e-11 0.995494 6.48874e-11 6.48874e-11 0.00450579 6.48874e-11 6.48874e-11 6.48874e-11 6.48874e-11 6.48874e-11 8.42717e-11 6.48874e-11 6.48874e-11 9.30409e-11 6.48874e-11 6.48874e-11 6.48874e-11 6.48874e-11 6.48874e-11 6.48874e-11 6.48874e-11 9.67106e-11 6.48874e-11 6.48874e-11 6.48874e-11 6.48874e-11 6.48874e-11 6.48874e-11 6.48874e-11 6.48874e-11 6.48874e-11 6.48874e-11 6.48874e-11 8.42717e-11 6.48874e-11 6.48874e-11 6.48874e-11 6.48874e-11 6.48874e-11 9.45465e-11 6.48874e-11 6.48874e-11 8.42717e-11 6.48874e-11 6.48874e-11 6.48874e-11 6.48874e-11 6.48874e-11 6.48874e-11 6.48874e-11 6.48874e-11 6.48874e-11 7.98592e-11 6.48874e-11 6.48874e-11 6.48874e-11 6.48874e-11 6.48874e-11 6.48874e-11 6.48874e-11 6.48874e-11 6.48874e-11 6.48874e-11 6.48874e-11 6.48874e-11 6.48874e-11 6.48874e-11 6.48874e-11 6.48874e-11 6.48874e-11 6.48874e-11 6.48874e-11 6.48874e-11 6.48874e-11 6.48874e-11 6.48874e-11 6.48874e-11 6.48874e-11 6.48874e-11 6.48874e-11 6.48874e-11 6.48874e-11 6.48874e-11 6.48874e-11 6.48874e-11 6.48874e-11 6.48874e-11 9.77337e-11 6.48874e-11 6.48874e-11 6.48874e-11 6.48874e-11 6.48874e-11 8.42717e-11 6.48874e-11 6.48874e-11 6.48874e-11 6.48874e-11 6.48874e-11 6.48874e-11 6.48874e-11 6.48874e-11 6.48874e-11 6.48874e-11 6.48874e-11 6.48874e-11 6.48874e-11 6.48874e-11 6.48874e-11 6.48874e-11 6.48874e-11 6.48874e-11 6.48874e-11 6.48874e-11 6.48874e-11 7.98592e-11 6.48874e-11 6.48874e-11 6.48874e-11 6.48874e-11 6.48874e-11 6.48874e-11 6.48874e-11 6.48874e-11 6.48874e-11 6.48874e-11 6.48874e-11 6.48874e-11 6.48874e-11 6.48874e-11 6.48874e-11 6.48874e-11 6.48874e-11 6.48874e-11 6.48874e-11 6.48874e-11 6.48874e-11 6.48874e-11 6.48874e-11 
7 4.08286e-11 1.54638e-11 0.843518 3.7314e-11 3.74025e-11 0.155962 2.0061e-11 5.06393e-11 1.54403e-11 5.7711e-11 4.07706e-11 4.32583e-11 2.1879e-11 1.54944e-11 4.52068e-11 2.0117e-11 3.73918e-11 2.01479e-11 5.05433e-11 5.12472e-11 2.19107e-11 4.32583e-11 4.32583e-11 1.99443e-11 5.31594e-11 4.02459e-11 1.99846e-11 3.7374e-11 4.02459e-11 4.08311e-11 5.05333e-11 2.00009e-11 0.000188122 0.000331983 9.94743e-11 9.94862e-11 9.94862e-11 5.12472e-11 5.31818e-11 7.21157e-11 7.32483e-11 6.68906e-11 5.12472e-11 4.02459e-11 4.56086e-11 1.99213e-11 3.73665e-11 7.10206e-11 1.54555e-11 2.29543e-11 4.02459e-11 7.21786e-11 3.73166e-11 1.55166e-11 4.02459e-11 1.56005e-11 1.9913e-11 4.02459e-11 4.02459e-11 3.73374e-11 1e-10 9.99992e-11 9.94743e-11 9.99542e-11 9.94862e-11 1.98725e-11 6.68906e-11 5.05929e-11 2.19396e-11 1.55384e-11 9.43539e-11 6.68906e-11 1.54478e-11 2.46452e-11 5.12472e-11 4.69673e-11 1.99663e-11 7.21751e-11 4.02459e-11 4.52848e-11 5.12472e-11 9.94743e-11 2.00694e-11 1.54742e-11 4.02459e-11 1.54742e-11 5.12472e-11 4.02459e-11 2.29424e-11 3.7374e-11 4.32583e-11 1.55899e-11 4.02459e-11 3.7281e-11 2.00498e-11 4.02459e-11 6.68906e-11 2.01232e-11 4.69274e-11 4.02459e-11 4.02459e-11 9.9991e-11 9.99982e-11 4.02459e-11 9.94743e-11 1.9893e-11 5.81618e-11 2.01413e-11 2.46406e-11 7.03699e-11 4.02459e-11 4.02459e-11 5.06202e-11 4.02459e-11 1.55649e-11 3.73374e-11 1.04761e-11 4.02459e-11 4.02459e-11 4.02459e-11 4.76683e-11 1.55704e-11 4.02459e-11 4.02459e-11 2.29843e-11 4.69311e-11 1e-10 1e-10 9.94743e-11 9.94743e-11 5.12472e-11 2.01267e-11 4.02459e-11 2.46243e-11 1.04708e-11 7.40423e-11 7.32483e-11 5.12472e-11 3.72902e-11 5.12472e-11 
8 2.40837e-11 3.58033e-11 0.58224 2.40995e-11 2.40944e-11 0.27786 2.55402e-11 5.40787e-11 2.54815e-11 7.89699e-11 3.70439e-11 0.0950041 7.89699e-11 2.94939e-11 9.80026e-06 2.55922e-11 2.40178e-11 3.69861e-11 5.39284e-11 5.39702e-11 2.56151e-11 1.93383e-11 4.38398e-11 2.97113e-11 2.16959e-11 4.07219e-11 2.45175e-11 5.39702e-11 9.99999e-11 0.0448859 9.93621e-11 9.93621e-11 5.39284e-11 5.39702e-11 5.40787e-11 1.37129e-11 5.39702e-11 4.07053e-11 2.54888e-11 5.39841e-11 5.44304e-11 5.38594e-11 9.92992e-11 2.97113e-11 5.40028e-11 2.95093e-11 2.44223e-11 3.53952e-11 2.57009e-11 3.70112e-11 2.40055e-11 4.1177e-11 4.11527e-11 5.39447e-11 2.55827e-11 3.70185e-11 5.38304e-11 1.36859e-11 5.38299e-11 4.11385e-11 2.40468e-11 5.17088e-11 4.06901e-11 5.44618e-11 2.16787e-11 5.44304e-11 2.9833e-11 2.16777e-11 2.56521e-11 2.56691e-11 5.17088e-11 2.43243e-11 9.93621e-11 3.66886e-11 1.65434e-11 2.97033e-11 3.67938e-11 2.41246e-11 5.38304e-11 5.38299e-11 1.36719e-11 5.17172e-11 2.97045e-11 7.89699e-11 1.65096e-11 2.95292e-11 5.44762e-11 2.44429e-11 5.38382e-11 3.41251e-11 4.06989e-11 5.39117e-11 4.06875e-11 5.38382e-11 8.782e-11 2.56801e-11 2.97582e-11 9.93621e-11 9.93621e-11 2.44914e-11 2.95257e-11 2.9815e-11 2.44728e-11 5.39642e-11 7.89699e-11 2.17173e-11 1.36515e-11 5.39737e-11 4.1211e-11 4.11944e-11 2.98084e-11 4.11897e-11 2.45126e-11 5.39315e-11 3.70213e-11 4.06875e-11 2.40703e-11 5.38594e-11 2.9833e-11 3.69776e-11 2.97729e-11 9.93621e-11 2.16721e-11 9.93621e-11 9.93621e-11 8.98716e-11 2.17202e-11 2.40055e-11 7.89699e-11 7.89699e-11 2.95093e-11 2.97382e-11 5.3882e-11 3.5386e-11 2.55608e-11 5.39486e-11 2.40944e-11 5.38191e-11 2.44553e-11 3.70439e-11 
9 6.4398e-11 1.93561e-11 0.615479 7.02428e-11 1.90885e-11 0.324341 5.50031e-11 6.2022e-11 4.15101e-11 1.89655e-11 6.1826e-11 0.059658 4.16234e-11 4.20262e-11 1.09167e-06 9.95064e-11 6.16375e-11 9.03253e-11 4.15453e-11 4.23515e-11 6.15398e-11 6.44318e-11 6.20438e-11 5.50959e-11 2.47638e-11 7.3916e-11 6.17008e-11 6.20438e-11 1.63247e-11 5.50884e-11 1.9246e-11 9.03253e-11 1.27298e-05 0.000117581 9.9523e-11 0.000353165 3.7288e-05 9.9523e-11 9.9506e-11 6.2022e-11 9.95064e-11 5.4989e-11 5.13545e-11 4.15788e-11 6.44318e-11 6.17008e-11 1.60962e-11 1.94121e-11 1.63145e-11 5.51186e-11 4.142e-11 1.60625e-11 1.90098e-11 1.62447e-11 1.61162e-11 4.14658e-11 5.51865e-11 1.64017e-11 6.44318e-11 4.20203e-11 9.97706e-11 1e-10 9.9523e-11 1e-10 1e-10 9.9523e-11 9.9523e-11 5.14957e-11 6.44318e-11 5.13611e-11 9.95064e-11 7.88195e-11 9.7168e-11 2.47266e-11 4.20841e-11 4.76961e-11 1.62101e-11 4.21221e-11 4.21259e-11 1.9388e-11 1.62458e-11 9.9523e-11 9.9523e-11 9.95304e-11 4.16083e-11 4.16699e-11 9.95064e-11 1.62678e-11 6.43154e-11 6.1819e-11 1.91356e-11 4.16553e-11 4.77248e-11 5.4989e-11 4.20203e-11 5.51405e-11 6.2022e-11 5.14033e-11 7.3978e-11 4.16083e-11 4.13899e-11 9.9523e-11 9.95304e-11 9.95064e-11 9.9523e-11 7.88376e-11 1.91356e-11 1.9167e-11 6.43154e-11 6.20438e-11 9.9506e-11 6.43154e-11 4.13506e-11 5.51816e-11 6.2022e-11 4.22123e-11 5.4989e-11 6.20438e-11 7.51861e-11 4.20843e-11 1.63604e-11 2.47162e-11 1.6151e-11 4.22455e-11 2.47315e-11 5.14518e-11 9.9523e-11 9.95304e-11 9.9523e-11 9.95324e-11 9.95394e-11 9.95064e-11 6.44318e-11 1.60623e-11 6.15647e-11 7.02428e-11 1.90421e-11 1.62768e-11 6.2022e-11 9.0291e-11 
10 0.000397923 9.95503e-11 0.999133 8.60343e-11 8.60343e-11 8.60007e-11 8.60343e-11 8.60343e-11 1.77479e-11 9.95684e-11 8.90895e-11 1.55368e-11 8.83929e-11 8.60243e-11 8.58158e-11 8.60343e-11 8.60343e-11 8.83734e-11 8.92285e-11 8.90895e-11 1.26728e-11 1.72648e-11 1.72648e-11 8.60343e-11 1.02976e-11 1.72932e-11 9.48266e-11 3.57676e-11 9.96439e-11 8.60343e-11 8.83929e-11 8.83931e-11 0.000469539 9.62097e-11 9.48266e-11 9.98005e-11 9.48266e-11 9.62097e-11 9.68376e-11 1.73145e-11 8.58158e-11 9.48266e-11 8.83734e-11 1.77134e-11 4.31475e-11 8.58158e-11 4.31594e-11 8.60343e-11 1.2708e-11 6.74347e-11 8.83923e-11 2.63147e-11 1.26433e-11 8.60007e-11 1.26728e-11 8.60343e-11 9.95684e-11 8.90895e-11 8.83929e-11 8.60343e-11 1.02557e-11 1.63661e-11 8.83734e-11 1.63661e-11 1.55158e-11 1.2693e-11 8.83734e-11 8.60343e-11 8.60343e-11 1.26944e-11 8.60343e-11 8.60343e-11 8.90895e-11 1.64141e-11 8.60343e-11 1.55158e-11 8.60343e-11 9.48266e-11 4.31475e-11 8.60343e-11 8.60343e-11 9.48266e-11 9.48266e-11 9.48266e-11 8.60343e-11 8.60343e-11 8.60343e-11 8.83931e-11 1.73275e-11 8.90895e-11 1.55158e-11 8.60343e-11 1.5498e-11 8.83734e-11 9.48266e-11 8.58158e-11 8.60343e-11 8.83929e-11 8.83929e-11 8.83929e-11 8.60343e-11 9.97672e-11 9.62097e-11 9.62097e-11 9.62097e-11 9.79758e-11 3.57676e-11 1.5498e-11 9.9607e-11 1.5498e-11 9.95684e-11 8.90895e-11 8.83929e-11 8.60343e-11 8.90895e-11 8.60007e-11 8.83931e-11 4.31594e-11 9.82416e-11 1.63213e-11 8.60343e-11 3.57676e-11 1.72732e-11 8.60343e-11 8.90895e-11 8.60343e-11 9.97887e-11 9.97806e-11 9.62097e-11 9.62097e-11 9.62097e-11 1.72648e-11 8.60343e-11 8.58158e-11 3.57676e-11 1.26351e-11 2.05298e-11 8.60343e-11 6.74347e-11 1.74848e-11 
11 5.18688e-11 5.02216e-11 0.62266 5.02216e-11 4.01721e-11 0.369229 5.8197e-11 5.02493e-11 5.02493e-11 9.57085e-11 9.53148e-11 0.00010342 9.57085e-11 9.53148e-11 0.00800842 1.90433e-11 6.97308e-11 9.57085e-11 9.53148e-11 3.57938e-11 9.57085e-11 5.02493e-11 5.02493e-11 5.39426e-11 9.57085e-11 9.57085e-11 9.57085e-11 9.57085e-11 9.57085e-11 9.57085e-11 9.53148e-11 9.53148e-11 5.01858e-11 7.46016e-11 4.91162e-11 9.57085e-11 9.57085e-11 9.35377e-11 9.57085e-11 6.65e-11 5.02216e-11 5.01858e-11 6.03116e-11 9.53148e-11 5.02216e-11 9.57085e-11 9.57085e-11 9.57085e-11 9.57085e-11 5.88598e-11 5.02216e-11 2.7994e-11 9.57085e-11 9.57085e-11 9.57085e-11 9.57085e-11 9.57085e-11 9.57085e-11 9.57085e-11 9.57085e-11 5.18688e-11 4.92304e-11 5.4004e-11 9.57085e-11 9.57085e-11 9.35377e-11 9.35377e-11 5.02216e-11 9.35377e-11 9.35377e-11 5.01858e-11 5.01858e-11 9.35377e-11 9.57085e-11 9.35377e-11 9.57085e-11 4.91536e-11 9.57085e-11 9.57085e-11 9.35377e-11 9.35377e-11 5.01784e-11 5.02216e-11 9.35377e-11 3.57542e-11 4.91837e-11 6.65e-11 3.5771e-11 5.01784e-11 5.02216e-11 5.02493e-11 9.35377e-11 5.02493e-11 4.91398e-11 5.03227e-11 7.46016e-11 5.02216e-11 3.57502e-11 5.02216e-11 6.91005e-11 5.02216e-11 5.02493e-11 5.01858e-11 5.02216e-11 4.01721e-11 6.03339e-11 4.91346e-11 5.02493e-11 5.82007e-11 7.30337e-11 6.65201e-11 5.01784e-11 9.57085e-11 9.57085e-11 9.57085e-11 9.57085e-11 9.57085e-11 9.57085e-11 9.35377e-11 2.79741e-11 9.57085e-11 9.57085e-11 9.57085e-11 9.57085e-11 9.57085e-11 9.53148e-11 5.02662e-11 1.90433e-11 9.57085e-11 9.57085e-11 9.53148e-11 6.97228e-11 5.02216e-11 7.46016e-11 5.02041e-11 4.91162e-11 9.57085e-11 9.57085e-11 9.57085e-11 9.57085e-11 
12 3.87518e-11 4.5795e-11 0.639709 3.6166e-11 5.05976e-11 0.341839 5.06012e-11 5.06012e-11 4.50202e-11 9.35054e-11 9.35054e-11 0.0114373 9.35054e-11 9.35054e-11 0.00701506 5.06012e-11 2.01461e-11 9.35054e-11 9.8299e-11 5.05976e-11 9.44361e-11 5.31285e-11 3.86972e-11 5.05976e-11 8.69383e-11 9.35054e-11 9.35054e-11 5.06012e-11 9.35054e-11 9.35054e-11 4.39015e-11 5.05976e-11 5.06012e-11 5.06012e-11 5.48353e-11 9.35054e-11 9.35054e-11 3.87518e-11 5.06012e-11 4.5795e-11 4.577e-11 5.59019e-11 5.06012e-11 4.30734e-11 5.31792e-11 9.35054e-11 9.35054e-11 9.44361e-11 3.87093e-11 4.39864e-11 5.05976e-11 5.93529e-11 9.35054e-11 9.35054e-11 9.35054e-11 5.06012e-11 9.35054e-11 9.35054e-11 9.35054e-11 6.54996e-11 5.06012e-11 6.30727e-11 5.06012e-11 9.35054e-11 9.35054e-11 9.79564e-11 2.01636e-11 2.0145e-11 6.54551e-11 5.2884e-11 3.87248e-11 5.06012e-11 5.95674e-11 8.62771e-11 9.79564e-11 4.40721e-11 5.06012e-11 9.35054e-11 4.40524e-11 5.29434e-11 6.30151e-11 5.93529e-11 9.35054e-11 5.05976e-11 2.88231e-11 6.30213e-11 5.06012e-11 4.39691e-11 3.61492e-11 2.882e-11 9.82917e-11 5.06012e-11 5.06012e-11 1.41417e-11 8.62771e-11 5.06012e-11 9.79564e-11 4.30734e-11 4.40608e-11 2.01683e-11 5.06012e-11 5.06012e-11 1.4189e-11 9.79564e-11 2.88231e-11 5.06012e-11 5.06012e-11 5.31285e-11 4.41164e-11 5.05976e-11 5.48353e-11 5.48353e-11 9.35054e-11 9.44454e-11 9.35054e-11 9.79564e-11 4.30172e-11 9.35054e-11 9.79564e-11 5.06012e-11 9.35054e-11 9.35054e-11 5.05976e-11 9.35054e-11 9.35054e-11 5.84004e-11 5.29182e-11 2.88231e-11 9.35054e-11 9.35054e-11 9.82917e-11 5.06012e-11 2.88231e-11 5.05976e-11 6.30213e-11 2.01969e-11 9.8299e-11 9.35054e-11 9.35054e-11 1.06373e-11 
13 5.205e-11 4.2512e-11 0.646445 5.89397e-11 5.79011e-11 0.252586 1.27816e-11 1.28116e-11 1.29988e-11 1.30073e-11 4.2567e-11 0.100969 6.553e-11 5.78834e-11 1e-10 9.62133e-11 5.78719e-11 5.98822e-11 2.37842e-11 4.5644e-11 5.78646e-11 5.78373e-11 5.78472e-11 2.37652e-11 2.49923e-11 1.85555e-11 5.78494e-11 2.37476e-11 6.55379e-11 3.79604e-11 2.49974e-11 1.29926e-11 8.79854e-11 5.89474e-11 1.27943e-11 4.25662e-11 1.85602e-11 5.78834e-11 5.205e-11 5.20437e-11 1.85571e-11 2.37781e-11 8.79788e-11 2.37566e-11 1.27993e-11 1.28044e-11 2.3759e-11 5.20637e-11 2.37957e-11 1.28082e-11 3.79604e-11 4.5644e-11 8.56058e-11 5.78406e-11 8.56039e-11 1.85602e-11 9.62133e-11 5.78568e-11 6.55432e-11 4.25597e-11 2.40229e-11 5.78494e-11 2.4566e-11 2.38158e-11 5.89322e-11 1.29963e-11 6.55432e-11 8.56039e-11 2.4566e-11 9.62133e-11 4.25155e-11 2.37927e-11 9.62133e-11 2.37498e-11 5.78373e-11 5.98899e-11 5.78925e-11 6.55319e-11 4.2522e-11 9.62133e-11 4.25871e-11 1.35243e-11 1.85557e-11 2.4567e-11 4.25745e-11 2.37927e-11 4.56354e-11 4.25402e-11 4.25329e-11 1.30139e-11 1.28099e-11 4.2545e-11 2.38091e-11 2.37927e-11 1.30041e-11 2.40174e-11 2.3759e-11 1.85473e-11 1.28082e-11 1.27965e-11 2.50023e-11 1.22755e-11 4.25753e-11 4.25538e-11 4.25825e-11 5.20637e-11 1.2817e-11 8.56058e-11 2.40103e-11 9.62133e-11 5.89449e-11 6.55138e-11 9.62133e-11 4.25597e-11 2.37717e-11 5.78373e-11 9.62133e-11 4.25707e-11 2.38012e-11 1.2815e-11 5.78638e-11 5.78948e-11 1.27863e-11 9.62133e-11 8.5595e-11 5.20571e-11 8.56039e-11 2.40215e-11 1.28309e-11 9.62133e-11 8.8049e-11 4.25304e-11 8.56039e-11 8.56058e-11 4.25142e-11 4.25871e-11 6.55228e-11 2.40296e-11 1.30073e-11 9.62226e-11 
14 6.89582e-11 6.92675e-11 0.959037 9.80069e-11 9.80069e-11 0.0141409 5.92051e-11 9.80069e-11 2.54516e-11 6.92675e-11 5.91774e-11 5.91903e-11 9.80069e-11 9.80069e-11 9.80069e-11 5.91774e-11 9.80069e-11 2.47739e-11 5.92051e-11 5.9317e-11 2.54821e-11 5.93067e-11 9.80069e-11 3.51104e-11 5.91774e-11 9.80069e-11 3.51108e-11 5.92051e-11 5.8895e-11 9.80069e-11 6.92675e-11 5.83675e-11 0.0268224 1e-10 7.36209e-11 9.80069e-11 9.80069e-11 4.40458e-11 2.47319e-11 6.92675e-11 9.80069e-11 6.92675e-11 5.91774e-11 9.80069e-11 5.91774e-11 8.83857e-11 9.80069e-11 6.92675e-11 5.88445e-11 5.91774e-11 9.80069e-11 5.83936e-11 3.51544e-11 9.80069e-11 5.89311e-11 9.80069e-11 6.92675e-11 9.80069e-11 2.33609e-11 5.91774e-11 5.92051e-11 9.80069e-11 5.76918e-11 1.79247e-11 9.80069e-11 5.91774e-11 5.94535e-11 4.40233e-11 9.80069e-11 9.80069e-11 5.92051e-11 2.90339e-11 5.91903e-11 5.92556e-11 3.50853e-11 5.76658e-11 5.92051e-11 5.83486e-11 1.78955e-11 2.48157e-11 2.54957e-11 5.92051e-11 2.54536e-11 5.7771e-11 2.47676e-11 2.54957e-11 5.93335e-11 9.80069e-11 9.80069e-11 9.80069e-11 5.92051e-11 7.39558e-11 9.80069e-11 5.76436e-11 9.80069e-11 5.9317e-11 5.83722e-11 2.3344e-11 9.80069e-11 5.77156e-11 5.92051e-11 9.80069e-11 9.80069e-11 7.3973e-11 5.92764e-11 5.77445e-11 9.80069e-11 4.14393e-11 5.9317e-11 5.92051e-11 5.91903e-11 6.92675e-11 5.92051e-11 5.91774e-11 5.88481e-11 2.47987e-11 9.80069e-11 5.92051e-11 2.33027e-11 5.92764e-11 5.92051e-11 5.88559e-11 5.92764e-11 9.80069e-11 9.80069e-11 5.92051e-11 9.80069e-11 9.80069e-11 5.91774e-11 5.92764e-11 5.92764e-11 2.48308e-11 5.83577e-11 5.91903e-11 9.80069e-11 7.35718e-11 5.9317e-11 9.80069e-11 5.92051e-11 9.80069e-11 
15 9.88645e-11 8.27963e-11 0.989267 8.27963e-11 8.27963e-11 0.0107326 9.88645e-11 8.27963e-11 9.88645e-11 9.88645e-11 9.88645e-11 9.88645e-11 9.88645e-11 9.88645e-11 8.27963e-11 9.88645e-11 8.27963e-11 8.27963e-11 9.88645e-11 9.88645e-11 8.27963e-11 8.27963e-11 9.88645e-11 8.27963e-11 8.27963e-11 9.88645e-11 9.88645e-11 8.27963e-11 8.27963e-11 8.27963e-11 9.88645e-11 9.88645e-11 8.27963e-11 8.27963e-11 8.27963e-11 9.88645e-11 8.27963e-11 6.35099e-11 8.27963e-11 9.88645e-11 8.27963e-11 8.27963e-11 8.27963e-11 8.27963e-11 8.27963e-11 9.88645e-11 8.27963e-11 8.27963e-11 9.88645e-11 8.27963e-11 8.27963e-11 9.88645e-11 9.88645e-11 8.27963e-11 9.88645e-11 9.88645e-11 9.88645e-11 9.88645e-11 8.27963e-11 8.27963e-11 9.88645e-11 9.88645e-11 8.27963e-11 9.88645e-11 9.88645e-11 9.88645e-11 8.27963e-11 9.88645e-11 9.88645e-11 8.27963e-11 8.27963e-11 9.88645e-11 8.27963e-11 9.88645e-11 9.88645e-11 8.27963e-11 9.88645e-11 8.27963e-11 8.27963e-11 9.88645e-11 9.88645e-11 8.27963e-11 8.27963e-11 9.88645e-11 8.27963e-11 8.27963e-11 9.88645e-11 8.27963e-11 8.27963e-11 9.88645e-11 8.27963e-11 8.27963e-11 8.27963e-11 8.27963e-11 9.88645e-11 8.27963e-11 9.88645e-11 9.88645e-11 9.88645e-11 6.35099e-11 8.27963e-11 8.27963e-11 8.27963e-11 8.27963e-11 9.88645e-11 8.27963e-11 9.88645e-11 8.27963e-11 9.88645e-11 8.27963e-11 6.35099e-11 9.88645e-11 9.88645e-11 9.88645e-11 9.88645e-11 8.27963e-11 9.88645e-11 9.88645e-11 9.88645e-11 9.88645e-11 9.88645e-11 9.88645e-11 8.27963e-11 8.27963e-11 8.27963e-11 8.27963e-11 9.88645e-11 9.88645e-11 8.27963e-11 9.88645e-11 9.88645e-11 8.27963e-11 9.88645e-11 8.27963e-11 8.27963e-11 9.88645e-11 8.27963e-11 8.27963e-11 8.27963e-11 9.88645e-11 
16 3.91462e-11 3.91462e-11 0.93916 3.91462e-11 3.91462e-11 0.0505129 3.91462e-11 1.56597e-11 3.91462e-11 3.91462e-11 3.91462e-11 3.91462e-11 2.2025e-11 3.91462e-11 3.91462e-11 3.91462e-11 3.91462e-11 3.91462e-11 3.91462e-11 2.2025e-11 3.91462e-11 3.91462e-11 3.91462e-11 3.91462e-11 3.91462e-11 3.91462e-11 3.91462e-11 3.91462e-11 3.91462e-11 3.91462e-11 1.55581e-11 3.91462e-11 3.91462e-11 3.91462e-11 3.91462e-11 3.91462e-11 3.91462e-11 3.91462e-11 3.91462e-11 0.0103247 2.34198e-06 9.2832e-11 3.91462e-11 3.91462e-11 3.91462e-11 3.91462e-11 3.91462e-11 3.91462e-11 3.91462e-11 3.91462e-11 3.91462e-11 3.91462e-11 3.91462e-11 3.91462e-11 3.91462e-11 3.91462e-11 3.91462e-11 3.91462e-11 3.91462e-11 4.41663e-11 3.91462e-11 3.91462e-11 9.2832e-11 3.91462e-11 9.2832e-11 3.91462e-11 3.91462e-11 3.91462e-11 3.91462e-11 3.91462e-11 3.91462e-11 3.91462e-11 3.91462e-11 6.15517e-11 3.91462e-11 1.05284e-11 2.2025e-11 3.91462e-11 3.91462e-11 3.91462e-11 3.91462e-11 9.62147e-11 3.91462e-11 3.91462e-11 9.62147e-11 3.91462e-11 3.91462e-11 3.91462e-11 3.91462e-11 3.91462e-11 3.91462e-11 3.91462e-11 3.91462e-11 3.91462e-11 3.91462e-11 3.91462e-11 3.91462e-11 3.91462e-11 3.91462e-11 2.2025e-11 3.91462e-11 3.91462e-11 3.91462e-11 2.2025e-11 2.2025e-11 9.62147e-11 9.62147e-11 9.62147e-11 3.91462e-11 6.15517e-11 1.56597e-11 3.91462e-11 3.91462e-11 3.91462e-11 3.91462e-11 3.91462e-11 9.2832e-11 1.56597e-11 3.91462e-11 3.91462e-11 3.91462e-11 3.91462e-11 2.2025e-11 3.91462e-11 3.91462e-11 3.91462e-11 3.91462e-11 3.91462e-11 4.41663e-11 3.91462e-11 3.91462e-11 9.68946e-11 9.68946e-11 9.68946e-11 9.68946e-11 3.91462e-11 3.91462e-11 6.15517e-11 2.2025e-11 3.91462e-11 
17 5.09112e-11 4.91731e-11 0.0252127 4.91731e-11 4.92521e-11 4.92521e-11 4.92521e-11 4.48825e-11 8.23453e-11 4.98847e-11 5.09112e-11 0.348235 4.92521e-11 4.92521e-11 4.92521e-11 4.92521e-11 2.54932e-11 4.92521e-11 4.92521e-11 4.98847e-11 0.509104 4.92521e-11 7.3622e-11 1.90354e-11 4.92521e-11 4.92521e-11 5.1105e-11 4.92521e-11 0.00172263 4.92521e-11 4.92521e-11 0.115118 0.000138651 9.99614e-11 6.02286e-11 8.50359e-05 9.99612e-11 9.99614e-11 0.000384434 6.03849e-11 4.98847e-11 4.92521e-11 4.97178e-11 4.92521e-11 4.92521e-11 4.92521e-11 5.09112e-11 4.92521e-11 4.92521e-11 4.92521e-11 4.61597e-11 5.09112e-11 5.1105e-11 5.09112e-11 4.98847e-11 4.92521e-11 4.92521e-11 4.92521e-11 7.3622e-11 8.31453e-11 1e-10 4.46142e-11 7.3622e-11 1e-10 3.71011e-11 4.97178e-11 1e-10 4.92521e-11 5.1105e-11 4.63136e-11 5.1105e-11 4.92521e-11 4.97178e-11 4.98847e-11 5.09112e-11 4.92521e-11 4.92521e-11 4.92521e-11 5.09112e-11 4.92521e-11 4.92521e-11 9.99612e-11 1.88448e-11 9.99614e-11 4.92521e-11 4.92521e-11 4.92521e-11 4.92521e-11 5.09112e-11 5.09112e-11 5.09112e-11 4.97178e-11 5.1105e-11 4.91731e-11 5.1105e-11 4.92521e-11 5.1105e-11 4.92521e-11 4.92521e-11 4.92521e-11 4.92521e-11 9.99587e-11 6.01672e-11 3.69304e-11 9.99614e-11 4.92521e-11 5.1105e-11 4.48036e-11 5.09112e-11 8.70584e-11 6.02286e-11 8.31453e-11 5.1105e-11 8.23453e-11 4.64503e-11 5.1105e-11 4.98847e-11 8.31453e-11 6.69334e-11 5.1105e-11 5.1105e-11 8.23453e-11 6.01672e-11 6.02286e-11 6.02286e-11 7.37485e-11 9.99612e-11 9.99614e-11 9.99614e-11 9.99612e-11 1e-10 4.98847e-11 5.09112e-11 4.94688e-11 7.3622e-11 6.02286e-11 4.92521e-11 4.92521e-11 7.3622e-11 4.92521e-11 
18 3.98979e-11 1.15497e-11 0.275896 5.77608e-11 5.33463e-11 0.588387 6.15839e-11 5.64943e-11 5.64943e-11 5.64985e-11 5.64985e-11 0.000852603 7.91667e-11 1.15374e-11 0.134864 2.37957e-11 5.77608e-11 6.76551e-11 3.98838e-11 6.04259e-11 5.64938e-11 2.5605e-11 6.15839e-11 3.99253e-11 2.56536e-11 5.33446e-11 1.15084e-11 3.98838e-11 5.91751e-11 2.56039e-11 5.77608e-11 2.56163e-11 5.64943e-11 3.98847e-11 1.15034e-11 1.14945e-11 6.15839e-11 5.64985e-11 9.41276e-11 5.64943e-11 6.90419e-11 2.55939e-11 4.65241e-11 5.64938e-11 6.15839e-11 2.56198e-11 6.19219e-11 5.3668e-11 5.64943e-11 6.15839e-11 3.9974e-11 1.71098e-11 1.15522e-11 5.77608e-11 3.99166e-11 9.41276e-11 5.64985e-11 9.41276e-11 2.56579e-11 5.64985e-11 4.65241e-11 2.56319e-11 1.7106e-11 2.56355e-11 6.15839e-11 5.91602e-11 6.15839e-11 2.37904e-11 5.64943e-11 2.55926e-11 3.99483e-11 6.15839e-11 5.3668e-11 3.99104e-11 4.60728e-11 4.65241e-11 5.3668e-11 1.71098e-11 5.3668e-11 2.56419e-11 5.89946e-11 3.99172e-11 1.15225e-11 5.64938e-11 2.55752e-11 2.56487e-11 6.15839e-11 5.25577e-11 5.25577e-11 5.3668e-11 5.89946e-11 5.64943e-11 3.99608e-11 2.56019e-11 4.65241e-11 3.98806e-11 5.25577e-11 5.33568e-11 5.33446e-11 5.25577e-11 5.77608e-11 5.36695e-11 2.3785e-11 2.56526e-11 3.98948e-11 9.41276e-11 5.33446e-11 1.15091e-11 3.98754e-11 6.15839e-11 5.65071e-11 6.15839e-11 6.15839e-11 2.37835e-11 1.15172e-11 3.99608e-11 5.65017e-11 6.15839e-11 4.60728e-11 2.5605e-11 3.98979e-11 5.77608e-11 2.56407e-11 5.65071e-11 5.64943e-11 1.15091e-11 5.33446e-11 5.64985e-11 5.77608e-11 2.56697e-11 1.15329e-11 5.25577e-11 5.25577e-11 5.77608e-11 5.64985e-11 3.99448e-11 5.91508e-11 5.77608e-11 1.15593e-11 2.55826e-11 
19 4.50289e-11 4.50285e-11 0.998069 8.81952e-11 4.50289e-11 8.81952e-11 4.50285e-11 4.50285e-11 2.5333e-11 1.16042e-11 2.70733e-11 4.50294e-11 4.50289e-11 4.50285e-11 2.5333e-11 4.50289e-11 7.14179e-11 4.50289e-11 1.16046e-11 2.91771e-11 2.70749e-11 4.50285e-11 4.50289e-11 4.50306e-11 4.50306e-11 7.14179e-11 4.50294e-11 2.70733e-11 4.50306e-11 1.16042e-11 4.50285e-11 2.70747e-11 1e-10 4.50285e-11 2.70748e-11 2.70735e-11 2.91771e-11 2.70735e-11 2.70747e-11 4.50289e-11 4.50289e-11 4.50306e-11 4.50285e-11 4.50306e-11 2.91771e-11 1.16052e-11 4.50285e-11 4.50306e-11 4.50289e-11 7.14179e-11 4.50289e-11 4.50285e-11 4.50306e-11 7.14179e-11 4.50289e-11 4.50289e-11 4.50289e-11 4.50289e-11 2.70733e-11 2.91771e-11 2.70733e-11 2.91771e-11 2.91771e-11 2.91771e-11 2.70747e-11 4.50289e-11 2.70748e-11 4.50285e-11 1.16046e-11 1.76438e-11 4.50285e-11 4.50285e-11 4.50285e-11 4.50285e-11 2.91771e-11 4.50306e-11 1.16042e-11 2.91771e-11 1.16042e-11 4.50289e-11 4.50306e-11 2.70741e-11 2.91771e-11 2.91771e-11 4.50285e-11 4.50285e-11 4.50306e-11 4.50289e-11 5.38153e-11 4.50289e-11 4.50285e-11 2.70747e-11 0.000578385 4.50306e-11 1.16042e-11 4.50285e-11 2.70746e-11 4.50289e-11 7.14179e-11 4.50294e-11 4.503e-11 1.76438e-11 2.9319e-11 2.70741e-11 0.00135292 7.14179e-11 8.81952e-11 4.50285e-11 8.81952e-11 2.51441e-11 4.50289e-11 2.70741e-11 4.50306e-11 2.70739e-11 7.14179e-11 4.50306e-11 4.50306e-11 4.50306e-11 4.50306e-11 4.50289e-11 7.14179e-11 1.16042e-11 4.50285e-11 1.16042e-11 4.50306e-11 4.50306e-11 2.70753e-11 2.70741e-11 2.70747e-11 2.91771e-11 2.91771e-11 4.50306e-11 4.50289e-11 5.38153e-11 4.50306e-11 7.14179e-11 4.50306e-11 4.50289e-11 1.76438e-11 3.41214e-11 
20 5.86822e-11 2.62881e-11 0.929119 2.91208e-11 3.0372e-11 0.0643542 9.45659e-11 3.04019e-11 5.24062e-11 4.12516e-11 5.24062e-11 0.000373861 1.2177e-11 2.90622e-11 0.00615274 1.242e-11 1.66281e-11 4.54277e-11 9.45659e-11 4.60681e-11 2.62233e-11 3.28652e-11 2.62024e-11 4.13026e-11 3.30363e-11 3.68405e-11 3.67703e-11 8.28589e-11 3.68988e-11 1.21229e-11 1.23917e-11 3.29436e-11 3.29817e-11 1.60171e-11 2.80267e-11 4.33231e-11 1.23047e-11 3.461e-11 1.23327e-11 4.34248e-11 4.12781e-11 4.51511e-11 4.56071e-11 5.24062e-11 8.28589e-11 3.25913e-11 4.13513e-11 5.24062e-11 5.24062e-11 2.80304e-11 5.24062e-11 4.34248e-11 4.33231e-11 3.27957e-11 3.28564e-11 3.6902e-11 2.63112e-11 1.22016e-11 3.26453e-11 3.68988e-11 3.69814e-11 2.80267e-11 1.21631e-11 4.53606e-11 3.27562e-11 3.70096e-11 2.90622e-11 1.6008e-11 2.37908e-11 4.49078e-11 4.56923e-11 2.63112e-11 4.53121e-11 3.69814e-11 5.24062e-11 2.90867e-11 1.59843e-11 2.90622e-11 9.7936e-11 2.63112e-11 3.70156e-11 5.24062e-11 2.80267e-11 2.6272e-11 4.51511e-11 3.26493e-11 2.62024e-11 1.21229e-11 4.54616e-11 8.28589e-11 4.34248e-11 1.59693e-11 3.70096e-11 1.21023e-11 2.90622e-11 4.27052e-11 3.04285e-11 3.69203e-11 1.79189e-11 2.62376e-11 5.24062e-11 7.45238e-11 1.22252e-11 3.67988e-11 4.13513e-11 2.62024e-11 3.67912e-11 3.29817e-11 3.69814e-11 5.86822e-11 1.22924e-11 4.53031e-11 3.6902e-11 3.46115e-11 2.80267e-11 4.51511e-11 1.23034e-11 3.45978e-11 2.80267e-11 2.62024e-11 3.68988e-11 1.23034e-11 8.28589e-11 2.6272e-11 4.33231e-11 3.69609e-11 5.24062e-11 3.30293e-11 2.62376e-11 4.49078e-11 3.26679e-11 2.91335e-11 2.38094e-11 3.74135e-11 4.26872e-11 3.46372e-11 4.12781e-11 4.53121e-11 2.80267e-11 3.69609e-11 
21 3.22448e-11 9.56789e-11 0.889816 4.89994e-11 9.56789e-11 0.110184 3.22688e-11 9.56789e-11 9.56789e-11 3.43253e-11 9.56789e-11 9.56789e-11 9.56789e-11 7.60614e-11 9.56789e-11 9.56789e-11 9.56789e-11 4.20303e-11 9.56789e-11 9.56789e-11 4.90341e-11 9.56789e-11 9.56789e-11 7.6008e-11 9.56789e-11 9.56789e-11 4.20665e-11 9.56789e-11 7.66249e-11 9.56789e-11 3.22627e-11 9.56789e-11 9.56789e-11 4.205e-11 9.56789e-11 9.56789e-11 9.56789e-11 9.56789e-11 7.60129e-11 9.56789e-11 9.56789e-11 9.56789e-11 9.56789e-11 7.6008e-11 7.60395e-11 9.56789e-11 4.20886e-11 9.56789e-11 3.22688e-11 9.56789e-11 4.19868e-11 9.56789e-11 9.56789e-11 7.59295e-11 9.56789e-11 4.21311e-11 9.8881e-11 9.56789e-11 3.2309e-11 3.43355e-11 4.205e-11 7.65888e-11 9.56789e-11 9.56789e-11 9.56789e-11 4.20088e-11 3.22593e-11 9.56789e-11 9.56789e-11 5.26873e-11 7.59011e-11 7.61032e-11 9.56789e-11 7.59002e-11 9.56789e-11 7.65513e-11 3.22915e-11 9.56789e-11 3.22678e-11 9.8881e-11 9.56789e-11 9.56789e-11 9.56789e-11 3.43627e-11 3.22205e-11 4.90108e-11 9.56789e-11 7.66422e-11 9.56789e-11 9.56789e-11 8.68539e-11 9.56789e-11 5.09263e-11 5.2664e-11 9.56789e-11 5.27054e-11 4.0926e-11 9.56789e-11 9.56789e-11 9.56789e-11 9.56789e-11 4.20017e-11 9.56789e-11 9.56789e-11 9.56789e-11 9.56789e-11 9.56789e-11 4.20825e-11 9.56789e-11 9.56789e-11 9.56789e-11 9.56789e-11 5.27065e-11 7.6008e-11 9.56789e-11 9.56789e-11 4.21028e-11 9.56789e-11 9.56789e-11 9.56789e-11 9.56789e-11 3.23391e-11 9.56789e-11 7.5879e-11 9.56789e-11 9.56789e-11 9.56789e-11 7.60033e-11 4.20146e-11 5.0955e-11 9.56789e-11 9.56789e-11 9.56789e-11 7.65717e-11 9.56789e-11 7.59295e-11 9.56789e-11 9.56789e-11 5.80317e-11 9.56789e-11 
22 3.8646e-11 1.51779e-11 0.96764 3.93559e-11 2.29828e-11 4.39191e-11 5.40684e-11 2.21783e-11 2.23566e-11 4.39191e-11 1.5375e-11 4.39191e-11 5.3797e-11 7.09809e-11 6.39747e-11 3.95404e-11 2.22404e-11 3.99563e-11 3.77836e-11 7.09809e-11 9.98583e-11 7.09809e-11 4.00429e-11 5.3797e-11 7.09809e-11 2.2838e-11 7.09809e-11 9.40024e-11 3.88349e-11 2.24239e-11 5.38594e-11 3.79558e-11 0.0291144 6.39786e-11 4.39191e-11 3.77648e-11 3.89956e-11 2.26759e-11 9.40707e-11 5.93034e-11 5.73029e-11 1.50948e-11 5.73029e-11 3.9727e-11 3.92711e-11 3.95906e-11 7.09809e-11 4.01673e-11 9.40707e-11 7.09809e-11 1.51054e-11 1.51054e-11 3.78502e-11 4.38725e-11 2.24239e-11 3.92419e-11 2.25837e-11 4.00936e-11 6.40086e-11 3.79224e-11 3.80235e-11 7.09809e-11 1.57776e-11 3.90739e-11 4.00488e-11 6.02171e-11 9.40707e-11 4.1143e-11 3.86936e-11 3.98259e-11 3.8097e-11 3.87661e-11 1.53217e-11 5.93034e-11 2.24816e-11 4.38725e-11 2.25262e-11 2.21783e-11 3.93559e-11 1.37582e-11 7.09809e-11 3.78862e-11 4.39191e-11 4.39191e-11 5.3797e-11 7.09809e-11 7.09809e-11 3.90739e-11 7.09809e-11 2.27598e-11 2.23228e-11 1.55707e-11 0.00198091 3.86936e-11 3.97453e-11 2.30778e-11 9.40024e-11 2.31294e-11 6.40086e-11 1.51054e-11 1.57245e-11 7.11221e-11 7.09809e-11 3.92419e-11 0.00126507 4.11115e-11 1.56386e-11 7.09809e-11 7.09809e-11 7.09809e-11 3.9941e-11 5.52621e-11 7.09809e-11 4.39191e-11 1.5375e-11 4.02379e-11 2.27752e-11 4.1136e-11 5.39809e-11 2.28432e-11 7.09809e-11 6.03501e-11 3.87126e-11 1.59508e-11 3.9445e-11 3.8097e-11 7.09809e-11 7.11221e-11 7.09809e-11 4.39191e-11 3.78302e-11 5.91434e-11 3.90991e-11 7.09809e-11 2.29047e-11 3.93305e-11 4.39191e-11 3.78862e-11 2.21783e-11 7.09809e-11 
23 1.69077e-11 1.27105e-11 0.143824 9.79967e-11 1.46396e-11 0.840687 1.81191e-11 1.69616e-11 1.69204e-11 6.383e-11 1.45791e-11 0.0128392 1.68856e-11 1.89401e-11 0.000317694 1.4121e-11 1.27007e-11 1.68961e-11 1.8228e-11 2.10622e-11 1.68525e-11 1.69077e-11 1.68679e-11 5.96595e-11 1.46437e-11 1.82362e-11 8.50348e-11 1.68961e-11 0.000714985 0.000962017 8.50348e-11 9.79967e-11 2.53636e-06 0.000652474 9.79668e-11 1e-10 1e-10 9.79668e-11 9.79967e-11 5.96595e-11 1.89401e-11 6.383e-11 1.55422e-11 1.46596e-11 1.46262e-11 1.49806e-11 2.10223e-11 2.21441e-11 1.55422e-11 4.30372e-11 5.92298e-11 2.21301e-11 1.49955e-11 1.68525e-11 1.4121e-11 1.40953e-11 6.83409e-11 6.83409e-11 6.83409e-11 6.83409e-11 9.79668e-11 9.80251e-11 8.50348e-11 9.79967e-11 9.79668e-11 8.50348e-11 9.79668e-11 1.46437e-11 1.41391e-11 9.79668e-11 2.48955e-11 3.05139e-11 1.46036e-11 1.69077e-11 1.82869e-11 1.68525e-11 8.50348e-11 1.46262e-11 2.21301e-11 8.50348e-11 6.83409e-11 9.79967e-11 9.80251e-11 8.50348e-11 1.69749e-11 1.74021e-11 1.69159e-11 1.68679e-11 1.69749e-11 6.383e-11 6.383e-11 1.41087e-11 1.49955e-11 8.50348e-11 6.44478e-11 1.68679e-11 1.69478e-11 9.79668e-11 9.79668e-11 6.83409e-11 6.83409e-11 9.79668e-11 9.79668e-11 8.50348e-11 8.50348e-11 9.22898e-11 1.49698e-11 1.68961e-11 1.27103e-11 1.81411e-11 1.82597e-11 1.68961e-11 1.69077e-11 1.69077e-11 1.69438e-11 1.69204e-11 1.68831e-11 1.69079e-11 1.68525e-11 9.79668e-11 1.69159e-11 9.79967e-11 1.69616e-11 9.79967e-11 9.79668e-11 8.50348e-11 9.79967e-11 9.79967e-11 9.79967e-11 9.79668e-11 9.79967e-11 2.10418e-11 1.80948e-11 1.69077e-11 2.70042e-11 8.50348e-11 1.46437e-11 1.68961e-11 1.68424e-11 1.49806e-11 
24 4.60943e-11 4.59617e-11 0.986493 2.65876e-11 1.16728e-11 0.00954737 4.60943e-11 3.00959e-11 3.04712e-11 3.22436e-11 2.66363e-11 4.60943e-11 4.60943e-11 4.08918e-11 4.60943e-11 3.07251e-11 3.07251e-11 4.48958e-11 3.04746e-11 2.21574e-11 1e-10 7.79913e-08 0.00212161 4.47235e-11 6.51094e-11 6.51094e-11 4.06151e-11 9.59691e-11 4.59069e-11 2.20556e-11 4.06916e-11 1.17421e-11 0.000159541 0.000369007 2.20121e-11 4.47235e-11 9.59821e-11 3.17647e-11 0.000317253 3.01521e-11 4.47235e-11 4.06505e-11 4.03975e-11 3.06369e-11 4.60943e-11 4.6096e-11 3.00655e-11 4.49247e-11 9.59691e-11 6.51094e-11 6.51094e-11 4.05176e-11 4.87048e-11 4.48501e-11 4.0836e-11 9.50083e-11 4.04848e-11 3.17979e-11 4.5864e-11 3.21684e-11 9.50083e-11 9.55384e-11 4.59613e-11 3.20923e-11 4.10009e-11 2.65783e-11 9.09628e-11 3.06592e-11 2.21013e-11 4.5864e-11 4.60943e-11 4.10498e-11 3.756e-11 3.01521e-11 3.76878e-11 1.16847e-11 6.51094e-11 3.19541e-11 4.59778e-11 3.00655e-11 4.60943e-11 1.63416e-11 4.60943e-11 3.08057e-11 4.04848e-11 3.00655e-11 4.6096e-11 1.17758e-11 4.60943e-11 4.47235e-11 3.0075e-11 4.87048e-11 0.000527332 6.51094e-11 6.51094e-11 2.66814e-11 0.000299241 3.00655e-11 3.16976e-11 3.05119e-11 1.63276e-11 3.04712e-11 4.60943e-11 3.04746e-11 0.000165331 3.05628e-11 2.21775e-11 3.04746e-11 3.19289e-11 4.60943e-11 3.0831e-11 4.60943e-11 1.52091e-11 4.1043e-11 3.0075e-11 3.0075e-11 3.05628e-11 3.05628e-11 6.51094e-11 6.51094e-11 4.10995e-11 3.04881e-11 3.04712e-11 3.05628e-11 3.05307e-11 4.60943e-11 9.54238e-11 9.50083e-11 3.18516e-11 4.60943e-11 3.05307e-11 3.1785e-11 4.60943e-11 3.04712e-11 4.47235e-11 4.60943e-11 3.05628e-11 4.87048e-11 4.60943e-11 9.54238e-11 
25 2.25608e-11 1.39245e-11 1 2.37494e-11 1.39245e-11 2.52353e-11 1.39245e-11 2.37583e-11 1.39245e-11 2.54308e-11 1.39245e-11 2.25608e-11 2.25608e-11 1.08626e-11 2.52361e-11 1.39245e-11 1.42282e-11 2.52353e-11 2.52361e-11 1.08626e-11 2.54308e-11 2.25608e-11 1.08105e-11 1.41309e-11 2.52353e-11 4.06149e-11 1.0034e-11 2.52353e-11 2.271e-11 2.52353e-11 2.37494e-11 2.25608e-11 1.39245e-11 1.08626e-11 1.00402e-11 1e-11 2.52353e-11 6.20446e-11 1.00237e-11 1.39245e-11 2.52353e-11 1.39245e-11 1.39245e-11 2.37494e-11 1.39245e-11 2.52361e-11 2.54308e-11 2.25608e-11 1.08626e-11 2.37583e-11 1.39245e-11 1.00999e-11 2.52361e-11 1.39245e-11 1.0828e-11 2.4892e-11 2.37494e-11 1.0844e-11 2.52353e-11 2.52353e-11 2.48915e-11 2.52353e-11 1e-11 2.52361e-11 2.52353e-11 2.52353e-11 1.08626e-11 2.25608e-11 1.39245e-11 2.52353e-11 1.39245e-11 2.25608e-11 1.08626e-11 1.08041e-11 1.39245e-11 1.42376e-11 1.39245e-11 2.25608e-11 1.39245e-11 1e-11 2.52353e-11 2.48915e-11 1.39245e-11 2.48915e-11 1.39245e-11 2.4892e-11 1.39245e-11 2.25608e-11 2.52353e-11 2.52353e-11 1.39245e-11 1.00197e-11 2.52353e-11 2.25608e-11 1.39245e-11 2.25608e-11 1e-11 2.37494e-11 1.39245e-11 2.48915e-11 1.08206e-11 1.0032e-11 2.37494e-11 2.52353e-11 1.41309e-11 1.75359e-11 1.00363e-11 1.39245e-11 1.00325e-11 2.48915e-11 1.39245e-11 2.37583e-11 1.39245e-11 1.00419e-11 1.08626e-11 1.39245e-11 1.39245e-11 1.39245e-11 1.0828e-11 1.08626e-11 2.25608e-11 1.00439e-11 2.37494e-11 2.52353e-11 2.25608e-11 1.39245e-11 2.37494e-11 2.52353e-11 2.48915e-11 2.52353e-11 1.39245e-11 2.25608e-11 1.75431e-11 1.39245e-11 1.39245e-11 1.39245e-11 1.39245e-11 1.0028e-11 1.08146e-11 1.08533e-11 
26 2.12102e-11 3.81688e-11 0.399915 1.13481e-11 7.04886e-11 0.405979 3.81305e-11 3.29743e-11 6.41906e-11 6.41906e-11 6.41906e-11 0.180478 3.92059e-11 8.9987e-11 0.000193175 6.41906e-11 3.81028e-11 6.41906e-11 3.82575e-11 6.41906e-11 6.41906e-11 0.0014245 0.000379515 8.97917e-11 1e-10 1e-10 8.9987e-11 8.9988e-11 6.41906e-11 3.92528e-11 5.85722e-11 1.13539e-11 0.00741711 0.000331589 7.04233e-11 1e-10 0.00155636 9.82378e-11 9.80186e-11 0.00230969 1.70789e-05 9.99504e-11 7.04092e-11 8.9988e-11 8.97917e-11 1.14302e-11 6.41906e-11 6.41906e-11 6.42306e-11 9.00073e-11 9.00194e-11 9.00073e-11 8.9988e-11 8.9988e-11 8.9988e-11 9.00073e-11 1.21644e-11 1.13199e-11 6.58866e-11 8.97917e-11 9.80186e-11 9.99418e-11 6.69156e-11 9.00643e-11 9.79988e-11 8.97917e-11 8.97917e-11 9.99418e-11 9.99472e-11 9.99418e-11 3.92253e-11 3.81565e-11 7.0548e-11 5.85814e-11 6.41707e-11 6.41906e-11 9.00073e-11 9.00194e-11 8.9987e-11 6.41906e-11 1.14082e-11 9.7965e-11 9.82378e-11 6.41906e-11 9.99472e-11 5.27102e-11 6.42297e-11 6.41906e-11 6.42107e-11 2.20608e-11 6.41906e-11 6.41906e-11 3.93089e-11 9.99472e-11 9.99472e-11 9.00073e-11 9.00073e-11 3.8093e-11 1.39419e-11 1.13918e-11 6.42385e-11 9.82314e-11 9.80186e-11 6.41906e-11 8.9988e-11 9.99504e-11 9.99418e-11 9.99418e-11 3.8143e-11 6.41906e-11 6.69102e-11 6.68923e-11 3.81916e-11 6.42403e-11 1.63336e-11 6.41906e-11 3.81977e-11 3.82317e-11 9.99656e-11 9.99504e-11 1e-10 1.00003e-10 9.00194e-11 3.82437e-11 1.13653e-11 1.21955e-11 9.93149e-11 9.99472e-11 9.93149e-11 9.99418e-11 9.7965e-11 9.99504e-11 9.99472e-11 9.99472e-11 9.99472e-11 9.99656e-11 1e-10 1e-10 9.99418e-11 1e-10 
27 2.8038e-11 2.89192e-11 0.447893 5.33292e-11 3.13867e-11 0.493718 6.54414e-11 4.78868e-11 3.00783e-11 3.72601e-11 2.88945e-11 0.0111612 6.77982e-11 1.69151e-11 0.00758822 2.80045e-11 6.24915e-11 3.13358e-11 3.00444e-11 2.89163e-11 3.18694e-11 8.97481e-11 3.00707e-11 2.7995e-11 5.33158e-11 5.33158e-11 5.33158e-11 3.13683e-11 3.00984e-11 6.54414e-11 5.33158e-11 2.61762e-11 3.10465e-05 0.000157413 9.50473e-11 4.69506e-05 0.000229599 9.50473e-11 9.50473e-11 5.33292e-11 3.60947e-11 3.1885e-11 6.43925e-11 3.01381e-11 5.33158e-11 5.33158e-11 2.4961e-11 3.72401e-11 5.33158e-11 3.00832e-11 1.68908e-11 7.60754e-11 2.46629e-11 7.08762e-11 5.33292e-11 5.33158e-11 2.49809e-11 5.33158e-11 3.0127e-11 4.78868e-11 9.94976e-11 9.94976e-11 9.50473e-11 9.9446e-11 1e-10 9.53299e-11 9.53299e-11 3.34658e-11 3.1382e-11 6.54987e-11 2.49961e-11 2.80077e-11 4.78777e-11 2.8061e-11 2.49961e-11 3.00574e-11 5.33158e-11 9.50473e-11 4.31398e-11 2.46784e-11 5.33158e-11 9.50473e-11 9.50473e-11 9.50473e-11 3.34837e-11 3.00626e-11 6.77982e-11 3.00189e-11 3.01374e-11 2.8061e-11 2.80489e-11 3.00984e-11 6.24645e-11 9.50473e-11 6.43925e-11 4.78868e-11 2.4665e-11 2.80243e-11 5.28404e-11 2.49961e-11 4.78868e-11 9.77066e-11 9.77066e-11 9.50473e-11 9.50473e-11 3.13358e-11 3.13512e-11 4.78621e-11 6.54414e-11 0.0384672 4.31532e-11 9.99998e-11 5.33158e-11 0.00058854 6.54414e-11 9.99999e-11 4.78868e-11 3.19199e-11 5.33158e-11 5.33292e-11 3.34837e-11 2.49961e-11 3.1885e-11 4.78868e-11 1.69151e-11 3.13358e-11 2.57911e-05 9.99999e-11 5.54302e-05 3.71124e-05 9.9446e-11 3.06574e-11 9.50473e-11 2.8038e-11 6.54954e-11 2.88844e-11 3.0121e-11 3.31933e-11 3.34837e-11 3.34696e-11 
28 1.68898e-11 2.09477e-11 0.368359 7.94991e-11 4.3434e-11 0.631641 1.53833e-11 3.6167e-11 3.41625e-11 9.01574e-11 3.80275e-11 3.41094e-11 2.38631e-11 8.53247e-11 4.37791e-11 3.41243e-11 2.05452e-11 4.41701e-11 9.01574e-11 1.53741e-11 1.68701e-11 8.90569e-11 3.6108e-11 1.64939e-11 4.16235e-11 2.0959e-11 3.61423e-11 3.80018e-11 3.41467e-11 1.21594e-11 9.01574e-11 3.41737e-11 1.21008e-11 4.42015e-11 4.16301e-11 3.63299e-11 4.41426e-11 3.79786e-11 1.20623e-11 3.62022e-11 7.94397e-11 8.53123e-11 2.09812e-11 4.16158e-11 3.62346e-11 4.41545e-11 1.54071e-11 3.41721e-11 6.36716e-11 9.01574e-11 3.40938e-11 7.95075e-11 3.42278e-11 3.7951e-11 3.7951e-11 9.01574e-11 7.94621e-11 2.10106e-11 3.63354e-11 1.64987e-11 3.61825e-11 4.37597e-11 4.16451e-11 3.63299e-11 3.47213e-11 1.54393e-11 7.94782e-11 8.53602e-11 2.38339e-11 2.3849e-11 3.42278e-11 3.46983e-11 4.42034e-11 3.79309e-11 9.01574e-11 2.09477e-11 7.94782e-11 4.34457e-11 2.3849e-11 1.54136e-11 3.42278e-11 3.6144e-11 2.09929e-11 1.64802e-11 3.46983e-11 4.37597e-11 3.6108e-11 3.6144e-11 6.36544e-11 3.79707e-11 8.53247e-11 7.94782e-11 3.63299e-11 3.41437e-11 3.61423e-11 1.21245e-11 2.0531e-11 3.41094e-11 1.208e-11 1.64799e-11 3.41437e-11 3.42278e-11 3.79549e-11 3.25251e-11 3.61412e-11 6.36716e-11 3.41597e-11 2.10143e-11 6.36716e-11 3.41467e-11 1.2056e-11 9.01574e-11 2.09812e-11 2.0913e-11 1.2147e-11 1.54222e-11 3.80093e-11 2.0931e-11 3.41437e-11 4.3434e-11 6.36409e-11 3.41597e-11 7.38139e-11 4.37791e-11 8.53247e-11 3.64024e-11 8.53602e-11 3.79217e-11 3.42278e-11 1.21348e-11 7.94782e-11 2.05625e-11 3.62499e-11 2.05808e-11 3.61282e-11 3.79842e-11 3.61412e-11 1.21823e-11 4.16451e-11 3.63094e-11 
29 9.99191e-11 4.09175e-11 0.983987 7.95479e-11 9.99191e-11 9.99191e-11 9.99191e-11 7.95693e-11 6.29859e-11 7.94624e-11 6.29888e-11 8.34199e-11 7.36791e-11 5.31913e-11 9.99191e-11 9.99191e-11 7.55284e-11 4.60571e-11 9.99191e-11 6.07155e-11 9.99191e-11 9.99191e-11 6.26068e-11 7.3744e-11 5.31842e-11 7.36526e-11 4.58767e-11 4.07911e-11 6.28133e-11 6.05367e-11 4.63573e-11 8.34511e-11 0.0160128 9.99191e-11 9.99191e-11 9.99191e-11 4.58333e-11 9.99191e-11 9.99191e-11 9.99191e-11 4.10007e-11 6.30218e-11 9.99191e-11 9.99191e-11 7.95693e-11 4.59126e-11 6.26838e-11 9.99191e-11 9.99191e-11 4.6118e-11 4.05968e-11 8.3542e-11 4.59538e-11 9.99191e-11 9.99191e-11 9.99191e-11 9.99191e-11 9.99191e-11 7.38151e-11 4.05968e-11 9.99191e-11 9.99191e-11 4.6188e-11 7.36526e-11 9.99191e-11 7.95431e-11 4.06656e-11 6.29163e-11 9.99191e-11 9.99191e-11 4.61683e-11 7.93543e-11 9.99191e-11 4.61126e-11 6.06514e-11 9.99191e-11 9.99191e-11 6.28505e-11 4.0894e-11 9.99191e-11 4.11245e-11 9.99191e-11 4.60176e-11 9.99191e-11 4.10556e-11 9.99191e-11 9.99191e-11 4.6151e-11 9.99191e-11 9.99191e-11 7.94266e-11 7.3744e-11 4.07399e-11 4.62481e-11 9.99191e-11 4.58767e-11 6.26323e-11 4.60551e-11 9.99191e-11 9.99191e-11 4.60064e-11 9.99191e-11 6.28072e-11 4.59608e-11 9.99191e-11 6.31777e-11 4.6151e-11 7.84102e-11 7.84817e-11 9.99191e-11 6.30921e-11 9.99191e-11 8.34577e-11 6.30949e-11 9.99191e-11 4.08499e-11 6.06073e-11 7.54193e-11 7.9527e-11 7.36555e-11 9.99191e-11 7.94304e-11 7.38778e-11 9.99191e-11 3.54776e-11 9.99191e-11 9.99191e-11 9.99191e-11 9.99191e-11 8.34708e-11 9.99191e-11 9.99191e-11 4.62639e-11 8.34708e-11 4.08499e-11 7.38778e-11 9.99191e-11 4.05375e-11 6.32459e-11 6.31429e-11 
30 1.09604e-11 1.34632e-11 1.68425e-11 6.56184e-11 6.56184e-11 1 1e-11 1.09588e-11 1.99667e-11 1.43202e-11 1.09665e-11 1.68492e-11 1.11577e-11 1.11867e-11 1.43202e-11 1.68425e-11 1.00185e-11 1.36986e-11 1.60119e-11 1.73873e-11 1.34746e-11 1.68538e-11 1.43296e-11 1.4317e-11 1.03117e-11 1.68425e-11 1.68425e-11 1.34573e-11 1.09823e-11 1.43218e-11 1.34439e-11 1.43202e-11 1.34731e-11 1.68425e-11 1.43218e-11 1.03265e-11 1.00256e-11 1.43202e-11 1.68425e-11 1.43202e-11 1.73873e-11 1.00403e-11 1.11951e-11 1.4317e-11 1.1133e-11 1.43238e-11 2.64705e-11 1.09715e-11 1.60137e-11 1.43238e-11 1.11961e-11 1.68425e-11 1.03184e-11 1.00124e-11 1.68538e-11 1.60119e-11 1.73988e-11 6.56184e-11 1.11518e-11 1.43202e-11 1.11839e-11 1.4317e-11 1.00336e-11 1.00553e-11 1.68538e-11 1.00062e-11 1.68538e-11 1.4317e-11 1.68425e-11 1.09715e-11 1.43202e-11 1.60119e-11 1.0045e-11 1.43296e-11 1.60137e-11 1.4317e-11 1.4317e-11 1.4317e-11 1.4317e-11 1.68425e-11 1.43202e-11 1.03444e-11 1.68425e-11 1.60137e-11 1.11965e-11 4.18731e-11 1.43218e-11 1.68492e-11 1.68538e-11 1.03319e-11 1.11684e-11 1.43238e-11 1.44701e-11 1.43296e-11 1.09773e-11 1.00518e-11 1.11646e-11 1.43353e-11 1.34662e-11 6.56184e-11 1.11463e-11 1.34502e-11 1.4317e-11 1.43296e-11 1.34465e-11 6.56184e-11 1.0338e-11 1.43218e-11 1.43353e-11 1.43202e-11 1.11784e-11 1.4317e-11 1.03096e-11 1.11666e-11 1.09754e-11 1.60119e-11 1.43202e-11 1.4317e-11 1.43238e-11 1.03393e-11 1.11351e-11 1.09763e-11 1.43202e-11 1.00296e-11 1.68492e-11 1.11712e-11 1.43296e-11 1.11401e-11 1.68538e-11 1.43202e-11 1.36986e-11 1.11872e-11 1.43296e-11 1.43218e-11 1.4317e-11 1.34462e-11 4.18731e-11 1.00367e-11 1.43218e-11 1.73965e-11 
31 8.86064e-11 8.31365e-11 0.621834 8.01194e-11 5.36033e-11 0.378166 3.31861e-11 8.31218e-11 7.79634e-11 2.60973e-11 8.01566e-11 8.31155e-11 1.28437e-11 1.78293e-11 9.15151e-11 8.01566e-11 3.76104e-11 8.30911e-11 3.76205e-11 4.04238e-11 9.15151e-11 7.59071e-11 9.15151e-11 1.28263e-11 3.76104e-11 9.97966e-11 8.01566e-11 8.30595e-11 1.27826e-11 4.01185e-11 9.15151e-11 8.30707e-11 8.31686e-11 9.15748e-11 8.60085e-11 8.01194e-11 3.31526e-11 4.03022e-11 8.31542e-11 9.15265e-11 3.58972e-11 8.01566e-11 3.94885e-11 3.75915e-11 3.31299e-11 8.01319e-11 2.7754e-11 7.58909e-11 4.01357e-11 3.7601e-11 7.59217e-11 4.03929e-11 8.01566e-11 5.78217e-11 7.59217e-11 8.01194e-11 3.31586e-11 8.01566e-11 3.76104e-11 3.31347e-11 3.31861e-11 7.59071e-11 1.28795e-11 5.35515e-11 4.01501e-11 1.78072e-11 2.77513e-11 5.35618e-11 8.30986e-11 2.61244e-11 9.16169e-11 3.31191e-11 9.44252e-11 7.59071e-11 1.78258e-11 8.01566e-11 4.03611e-11 8.30707e-11 7.59071e-11 8.01566e-11 5.35515e-11 8.31218e-11 4.04545e-11 3.75728e-11 9.15151e-11 1.28244e-11 5.35832e-11 8.01476e-11 3.82886e-11 4.04416e-11 4.03724e-11 3.59126e-11 5.7797e-11 5.78509e-11 4.01629e-11 8.01476e-11 1.27918e-11 4.00981e-11 9.15657e-11 8.31155e-11 8.60277e-11 5.78327e-11 8.01566e-11 5.78162e-11 8.01566e-11 9.15933e-11 3.94885e-11 1.28244e-11 4.03441e-11 9.97952e-11 3.59167e-11 9.97952e-11 8.59892e-11 9.97952e-11 5.47793e-11 5.35515e-11 8.01566e-11 7.79634e-11 2.77489e-11 2.77339e-11 1.28054e-11 2.77773e-11 9.15151e-11 2.77677e-11 7.59217e-11 4.0464e-11 5.35851e-11 3.82886e-11 8.31686e-11 2.61244e-11 2.61105e-11 8.0123e-11 8.01013e-11 1.78431e-11 3.31649e-11 9.97952e-11 9.97952e-11 4.04669e-11 8.60434e-11 8.30707e-11 
32 4.64679e-11 6.91286e-11 0.503946 9.11089e-11 5.37758e-11 0.496054 6.91286e-11 7.43947e-11 6.83754e-11 2.9762e-11 6.83754e-11 5.9048e-11 6.90469e-11 1.44045e-11 6.83754e-11 6.90469e-11 7.45659e-11 6.90707e-11 4.62064e-11 5.92361e-11 7.17696e-11 5.9057e-11 5.92527e-11 5.38321e-11 4.63643e-11 7.39659e-11 6.91286e-11 5.36532e-11 3.75481e-11 7.44523e-11 5.90213e-11 6.90469e-11 6.90425e-11 6.92154e-11 3.75936e-11 6.83754e-11 5.37384e-11 5.89616e-11 6.83754e-11 7.45659e-11 8.63047e-11 5.91904e-11 4.64225e-11 9.10878e-11 8.32698e-11 2.9619e-11 6.83754e-11 6.76463e-11 5.93199e-11 6.91199e-11 2.96678e-11 4.63931e-11 6.83417e-11 6.83754e-11 3.0069e-11 9.10878e-11 6.83417e-11 6.92154e-11 3.74492e-11 9.10878e-11 6.83754e-11 7.18148e-11 6.91286e-11 3.00168e-11 6.90707e-11 6.90707e-11 6.83754e-11 2.98008e-11 5.92926e-11 6.83754e-11 6.91286e-11 9.10878e-11 5.38977e-11 6.91286e-11 5.38977e-11 4.62879e-11 5.37663e-11 2.96756e-11 4.63358e-11 2.12853e-11 7.45088e-11 7.45722e-11 7.39659e-11 5.38977e-11 6.78159e-11 3.74062e-11 8.32331e-11 6.91286e-11 9.11131e-11 7.43947e-11 9.11089e-11 5.91199e-11 7.46135e-11 7.39659e-11 7.39659e-11 2.97223e-11 8.32698e-11 6.75943e-11 6.83754e-11 5.38977e-11 3.7502e-11 2.98487e-11 7.18678e-11 6.90707e-11 8.32698e-11 4.62306e-11 5.36814e-11 5.90189e-11 7.39659e-11 6.91286e-11 2.96394e-11 6.91286e-11 4.65659e-11 6.83754e-11 4.63755e-11 6.83754e-11 9.89952e-11 9.10878e-11 6.7692e-11 6.83754e-11 9.99851e-11 1.44201e-11 6.78159e-11 1.44152e-11 5.90734e-11 7.45474e-11 5.9057e-11 6.83754e-11 4.65948e-11 5.37758e-11 9.99851e-11 7.44523e-11 6.91286e-11 6.83754e-11 1.43688e-11 9.10878e-11 3.76184e-11 6.91286e-11 5.38977e-11 4.6507e-11 
33 7.19457e-11 8.06573e-11 0.814379 2.41972e-11 6.31272e-11 0.185162 1.29895e-11 5.79866e-11 8.06573e-11 8.51658e-11 8.06635e-11 7.60908e-11 9.90543e-11 5.8034e-11 8.06635e-11 7.17806e-11 2.41793e-11 4.08551e-11 5.81427e-11 5.79792e-11 8.51623e-11 8.06573e-11 7.58955e-11 1.29755e-11 7.19342e-11 8.06573e-11 3.41529e-11 2.96456e-11 7.00162e-11 7.18147e-11 3.65002e-11 8.06573e-11 9.61374e-05 0.00036309 1.77036e-11 8.06573e-11 7.72553e-11 2.15864e-11 3.75342e-11 8.06573e-11 8.06573e-11 8.06573e-11 5.80609e-11 5.80664e-11 3.6599e-11 2.9633e-11 9.90677e-11 2.15553e-11 8.06573e-11 7.72553e-11 3.75258e-11 8.0654e-11 3.66359e-11 3.43757e-11 2.15531e-11 3.41059e-11 1.76293e-11 4.12343e-11 8.51658e-11 1.76707e-11 9.90819e-11 2.28981e-11 2.16084e-11 8.51623e-11 8.06573e-11 7.00162e-11 5.79376e-11 7.19928e-11 8.06573e-11 2.4232e-11 4.08352e-11 3.42195e-11 4.08147e-11 8.15796e-11 1.77632e-11 8.06573e-11 9.90819e-11 6.31658e-11 5.81427e-11 2.41709e-11 5.80976e-11 5.81427e-11 6.31272e-11 3.43757e-11 1.77816e-11 3.65623e-11 9.90104e-11 2.15185e-11 8.06573e-11 8.06573e-11 8.51658e-11 3.6599e-11 7.19342e-11 3.64548e-11 8.06635e-11 7.59303e-11 2.42693e-11 7.18754e-11 7.196e-11 5.79555e-11 2.42194e-11 9.99151e-11 9.98939e-11 7.0024e-11 1.29979e-11 7.17424e-11 5.80658e-11 7.16732e-11 4.08879e-11 8.15796e-11 7.1854e-11 8.06573e-11 3.44118e-11 8.06573e-11 8.06573e-11 7.18147e-11 3.41407e-11 3.4098e-11 7.72114e-11 4.12393e-11 8.06573e-11 3.6591e-11 3.41838e-11 8.06573e-11 7.72553e-11 5.81427e-11 1e-10 1.00001e-10 7.0024e-11 9.98939e-11 7.60908e-11 7.50506e-11 3.42526e-11 3.43536e-11 1.76782e-11 3.42948e-11 2.1497e-11 7.50618e-11 9.90819e-11 3.41407e-11 
34 1.36745e-11 3.16876e-11 0.951673 2.92417e-11 2.96895e-11 0.0483273 2.96895e-11 2.44411e-11 2.82074e-11 1.25458e-11 2.6996e-11 3.54343e-11 1.37232e-11 9.56686e-11 2.32985e-11 2.24807e-11 2.32717e-11 2.44471e-11 7.51108e-11 1.25271e-11 9.56686e-11 3.16876e-11 3.23781e-11 1.24403e-11 1.36797e-11 2.96895e-11 3.54343e-11 1.25614e-11 1.3658e-11 1.24762e-11 2.2355e-11 2.23122e-11 1.2404e-11 1.36533e-11 2.44411e-11 2.70156e-11 2.96825e-11 2.88184e-11 2.44411e-11 3.17787e-11 2.44478e-11 2.81847e-11 2.69868e-11 3.55726e-11 2.22936e-11 9.56686e-11 2.44411e-11 2.81842e-11 7.51108e-11 2.6996e-11 1.242e-11 2.24807e-11 1.36227e-11 7.51108e-11 2.24422e-11 4.00493e-11 5.7004e-11 2.24231e-11 3.17939e-11 2.9709e-11 2.44411e-11 1.67459e-11 1.67271e-11 2.23892e-11 2.96895e-11 2.32489e-11 2.44471e-11 1.25188e-11 1.35978e-11 2.96825e-11 3.16876e-11 2.92606e-11 9.56686e-11 3.54e-11 2.6996e-11 9.56686e-11 1.24853e-11 2.44411e-11 9.56686e-11 1.37173e-11 2.44411e-11 3.17787e-11 1.2503e-11 2.44471e-11 1.36027e-11 1.2404e-11 3.17939e-11 3.17787e-11 3.57507e-11 2.32616e-11 2.44411e-11 2.33052e-11 2.23892e-11 2.23706e-11 9.56686e-11 1.67553e-11 2.24061e-11 2.2477e-11 1.24572e-11 2.23437e-11 1.36932e-11 2.44471e-11 3.16995e-11 1.25787e-11 9.56686e-11 2.24634e-11 1.24629e-11 1.36415e-11 9.56686e-11 4.831e-11 1.36521e-11 3.54159e-11 1.24955e-11 2.44411e-11 7.51108e-11 3.16876e-11 2.44471e-11 2.44411e-11 1.23896e-11 3.17939e-11 2.96895e-11 1.36427e-11 2.23298e-11 2.70156e-11 2.44471e-11 9.56686e-11 1.67065e-11 2.32874e-11 3.17787e-11 1.36676e-11 2.70156e-11 4.23195e-11 2.44411e-11 3.17787e-11 2.2477e-11 1.23955e-11 2.22768e-11 2.44471e-11 2.33052e-11 2.33052e-11 
35 9.47777e-11 7.86896e-11 0.858113 9.47777e-11 9.47777e-11 0.141887 9.47777e-11 2.9726e-11 7.46662e-11 9.47777e-11 9.47777e-11 9.47777e-11 7.85795e-11 9.47777e-11 9.47777e-11 9.47777e-11 9.47777e-11 9.47777e-11 9.47777e-11 9.47777e-11 5.91129e-11 9.47777e-11 9.47777e-11 7.45252e-11 4.92248e-11 4.91761e-11 9.47777e-11 7.4592e-11 9.47777e-11 9.47777e-11 9.47777e-11 7.44885e-11 9.47777e-11 9.47777e-11 9.47777e-11 3.68865e-11 3.69501e-11 8.59239e-11 9.47777e-11 9.4899e-11 9.47777e-11 9.47777e-11 9.47777e-11 9.47777e-11 5.93447e-11 7.86271e-11 7.84408e-11 7.86896e-11 9.47777e-11 9.47777e-11 9.47777e-11 9.47777e-11 7.45323e-11 5.92492e-11 8.59239e-11 5.37519e-11 8.5868e-11 3.91753e-11 9.47777e-11 4.92248e-11 9.47777e-11 5.92917e-11 5.91352e-11 7.8514e-11 9.47777e-11 4.92647e-11 9.47777e-11 8.59239e-11 9.47777e-11 5.92781e-11 9.47777e-11 9.47777e-11 8.59239e-11 3.68196e-11 9.47777e-11 3.67476e-11 7.83501e-11 2.97837e-11 9.47777e-11 7.83674e-11 9.47777e-11 9.47777e-11 9.47777e-11 9.47777e-11 5.38262e-11 8.5868e-11 9.47777e-11 5.37368e-11 9.47777e-11 9.47777e-11 9.47777e-11 9.47777e-11 9.47777e-11 9.47942e-11 9.47777e-11 9.47777e-11 7.44268e-11 9.47777e-11 3.69206e-11 2.98064e-11 9.48321e-11 9.47777e-11 9.47777e-11 9.47777e-11 5.36707e-11 9.47777e-11 9.47777e-11 7.86896e-11 9.47777e-11 9.48321e-11 9.48321e-11 9.47777e-11 9.47777e-11 8.59942e-11 9.50127e-11 9.47777e-11 2.98279e-11 9.47777e-11 5.38583e-11 9.47777e-11 9.47777e-11 9.47777e-11 9.47777e-11 9.47777e-11 7.86896e-11 9.47777e-11 9.47777e-11 8.59239e-11 5.19327e-11 9.47777e-11 5.91826e-11 9.47942e-11 9.47777e-11 9.47777e-11 7.86513e-11 9.47777e-11 3.67604e-11 9.47777e-11 9.47777e-11 9.47777e-11 
36 5.71025e-11 5.72091e-11 0.541713 4.57426e-11 6.19843e-11 0.397635 9.6583e-11 4.57586e-11 5.70681e-11 8.76102e-11 9.6583e-11 1.1278e-06 4.5808e-11 3.96907e-11 0.0606508 4.5808e-11 4.8988e-11 6.01978e-11 5.72261e-11 3.95794e-11 5.28519e-11 6.19476e-11 4.8988e-11 5.28519e-11 7.52191e-11 6.60784e-11 6.89238e-11 3.95308e-11 2.55759e-11 5.70963e-11 8.76689e-11 8.76689e-11 6.21054e-11 2.55952e-11 9.6583e-11 6.01978e-11 5.78205e-11 8.75649e-11 4.59873e-11 9.6583e-11 6.88346e-11 5.28519e-11 5.23958e-11 6.87747e-11 6.19843e-11 6.87708e-11 9.6583e-11 3.94768e-11 6.21976e-11 4.60364e-11 6.89087e-11 5.23566e-11 6.19875e-11 4.56907e-11 6.89839e-11 4.5808e-11 5.2336e-11 2.55979e-11 4.59873e-11 3.95424e-11 2.56554e-11 3.97458e-11 9.6583e-11 4.59873e-11 6.54227e-11 6.61359e-11 5.79513e-11 6.88424e-11 5.77738e-11 9.6583e-11 3.9529e-11 9.27138e-11 5.81206e-11 6.88424e-11 4.61394e-11 5.75611e-11 6.20164e-11 6.89852e-11 3.96199e-11 5.24575e-11 3.97422e-11 3.98264e-11 4.60754e-11 4.5808e-11 5.70681e-11 5.74257e-11 6.88346e-11 3.95308e-11 9.6583e-11 4.61406e-11 5.72398e-11 9.6583e-11 4.60169e-11 5.7405e-11 5.28329e-11 5.23958e-11 4.61406e-11 6.61035e-11 6.21054e-11 6.19573e-11 9.6583e-11 4.5808e-11 5.22709e-11 5.7885e-11 5.81254e-11 5.76754e-11 4.5808e-11 3.97981e-11 4.60519e-11 9.6583e-11 6.60784e-11 6.60784e-11 6.21178e-11 5.22253e-11 6.61035e-11 6.91063e-11 5.28329e-11 5.28831e-11 6.90443e-11 6.88516e-11 1.83487e-11 8.76102e-11 6.61826e-11 4.61394e-11 4.59873e-11 6.01978e-11 3.94767e-11 3.95993e-11 9.6583e-11 5.77453e-11 3.95665e-11 3.96828e-11 5.79965e-11 4.60926e-11 2.84393e-11 6.47622e-11 5.79261e-11 5.29316e-11 5.23958e-11 6.21054e-11 
37 3.16086e-11 1.01554e-11 1 1.69993e-11 1.69993e-11 2.09873e-11 2.37656e-11 2.09866e-11 1.32143e-11 2.68906e-11 1.69993e-11 2.21705e-11 1.69993e-11 6.2138e-11 2.62202e-11 1.69993e-11 1.32601e-11 1.32151e-11 9.77451e-11 2.62189e-11 9.77451e-11 9.77451e-11 1.32559e-11 6.2138e-11 1.01501e-11 1.32144e-11 1e-11 9.77451e-11 1.32152e-11 3.16086e-11 2.37656e-11 9.77451e-11 2.62202e-11 1.91583e-11 1.01549e-11 2.62202e-11 6.2138e-11 1.91583e-11 1.91583e-11 2.68889e-11 1.32541e-11 3.16055e-11 1.0152e-11 1.01466e-11 1.69993e-11 9.77451e-11 2.68906e-11 1e-11 1.02155e-11 1.91583e-11 1.91583e-11 1.32142e-11 3.84978e-11 9.77451e-11 6.2138e-11 1.32152e-11 2.37656e-11 2.62189e-11 1.91583e-11 1.91583e-11 2.68889e-11 2.41716e-11 2.37656e-11 1.91583e-11 1.91268e-11 1.00013e-11 1.00371e-11 1.91583e-11 1.69993e-11 1.01536e-11 1.97017e-11 1.32144e-11 9.77451e-11 3.16055e-11 1.32577e-11 2.09893e-11 1.00354e-11 1.00013e-11 1.91583e-11 1.69993e-11 2.37656e-11 3.16055e-11 3.16055e-11 1.00013e-11 1.00394e-11 1.97017e-11 2.62202e-11 9.77451e-11 1.32142e-11 6.2138e-11 2.37656e-11 2.37656e-11 2.37656e-11 1.32128e-11 3.16055e-11 1.91583e-11 9.77451e-11 1.69993e-11 1.91583e-11 1.69993e-11 3.16055e-11 1.91258e-11 6.2138e-11 3.16086e-11 1.32142e-11 1.00334e-11 1.01485e-11 1.69993e-11 1.69993e-11 2.37656e-11 1.69993e-11 2.41705e-11 2.21721e-11 2.37656e-11 1.91583e-11 3.16055e-11 1.97017e-11 1.3212e-11 1.01466e-11 1.00338e-11 1.32166e-11 1.69993e-11 2.37656e-11 1.32137e-11 6.2138e-11 1.91583e-11 1.69993e-11 1.91583e-11 2.09868e-11 9.77451e-11 1.01522e-11 2.62189e-11 1.69993e-11 2.37656e-11 9.77451e-11 1.00375e-11 1.00409e-11 6.2138e-11 1.00013e-11 1.91268e-11 
38 0.144192 0.040246 0.0135932 2.34462e-11 4.63931e-11 4.63931e-11 9.79658e-11 8.8864e-11 4.63931e-11 1e-11 2.11667e-11 1e-11 7.44454e-11 1e-11 1e-11 4.63931e-11 4.63931e-11 1e-11 1e-11 2.11667e-11 4.63931e-11 0.030953 4.63931e-11 2.34462e-11 8.8864e-11 4.63931e-11 8.8864e-11 1e-11 2.11667e-11 2.11667e-11 1.15113e-11 6.11134e-11 0.0673041 2.11667e-11 1e-11 2.74302e-11 4.63931e-11 4.63931e-11 1e-11 0.0011852 2.11667e-11 4.63931e-11 0.0157098 1.15113e-11 9.98685e-11 1e-11 2.34462e-11 1e-11 2.11667e-11 5.71903e-05 1.15113e-11 2.34462e-11 1.15113e-11 1e-11 1.56394e-11 2.74302e-11 1e-11 1.15113e-11 4.63931e-11 2.11667e-11 0.00564576 4.63931e-11 1e-11 1e-11 4.63931e-11 2.11667e-11 2.11667e-11 0.306703 4.63931e-11 1e-11 1e-11 2.34462e-11 4.63931e-11 2.34462e-11 6.11134e-11 2.34462e-11 4.63931e-11 9.79658e-11 2.11667e-11 2.34462e-11 2.11667e-11 1e-11 1e-11 1.15113e-11 1.15113e-11 1e-11 1.15113e-11 1e-11 1e-11 9.98684e-11 1e-11 2.11667e-11 1.15113e-11 4.63931e-11 4.63931e-11 1.15113e-11 1e-11 2.11667e-11 4.63931e-11 4.63931e-11 6.11134e-11 1e-11 1e-11 1e-11 4.63931e-11 1e-11 6.11134e-11 6.11134e-11 0.133398 0.0038827 9.99999e-11 0.0166546 1e-11 1.15113e-11 4.63931e-11 6.11134e-11 6.11134e-11 1.15113e-11 0.0028341 0.191782 1e-11 1e-11 4.63931e-11 4.63931e-11 2.34462e-11 1.15113e-11 1e-10 0.00203979 8.8864e-11 2.11667e-11 9.79658e-11 9.31937e-05 0.00152107 0.0222056 1e-11 4.63931e-11 9.98685e-11 1e-11 2.11667e-11 4.63931e-11 
39 7.49266e-11 0.000107996 5.92506e-11 6.63985e-11 7.49266e-11 1.21548e-11 6.63985e-11 0.0022356 2.48854e-11 9.85221e-11 0.250991 7.49364e-11 6.63612e-11 5.62919e-11 5.62919e-11 8.1015e-11 0.252352 7.49266e-11 5.62919e-11 9.85221e-11 4.39931e-11 2.45547e-11 1.21074e-11 5.23855e-11 9.85221e-11 6.63985e-11 2.45547e-11 4.90902e-11 5.23731e-11 3.62817e-11 5.62919e-11 8.70996e-11 3.63146e-11 1.31712e-11 8.4623e-11 5.38621e-11 8.70996e-11 9.80176e-11 5.62919e-11 3.63007e-11 6.63405e-11 8.4623e-11 5.37949e-11 4.39717e-11 6.63139e-11 7.49266e-11 5.2448e-11 7.49266e-11 4.90589e-11 5.24051e-11 5.92506e-11 4.40381e-11 8.70267e-11 3.62437e-11 9.85221e-11 2.49273e-11 5.92941e-11 9.78997e-11 8.70996e-11 1.91427e-11 2.46291e-11 8.70996e-11 7.49266e-11 2.47894e-11 7.49266e-11 1.3208e-11 9.79959e-11 8.70267e-11 2.47894e-11 5.63139e-11 0.0237341 5.23871e-11 0.470579 1.28562e-11 6.63612e-11 5.23871e-11 5.92399e-11 5.38194e-11 1.20908e-11 8.70174e-11 2.47341e-11 5.23682e-11 6.63612e-11 6.63612e-11 7.49266e-11 6.63985e-11 7.49266e-11 9.80176e-11 5.62919e-11 7.49266e-11 8.4623e-11 2.4582e-11 8.4623e-11 9.78997e-11 2.46291e-11 2.4941e-11 7.49266e-11 8.4623e-11 8.70996e-11 6.63612e-11 7.49266e-11 2.49294e-11 5.62919e-11 4.90547e-11 8.4623e-11 8.70996e-11 9.80176e-11 5.38194e-11 2.48126e-11 4.91134e-11 8.4623e-11 6.63405e-11 3.62817e-11 6.3685e-11 4.39514e-11 4.90547e-11 5.00523e-11 6.3685e-11 2.482e-11 4.90278e-11 5.0135e-11 5.24915e-11 7.49266e-11 6.63985e-11 6.63139e-11 2.47771e-11 6.63985e-11 5.00934e-11 5.24051e-11 6.63985e-11 5.62919e-11 1.9191e-11 9.83661e-11 2.45673e-11 7.49266e-11 2.47963e-11 2.48879e-11 2.48674e-11 1.28052e-11 5.92274e-11 
40 9.79991e-11 9.79991e-11 4.86891e-11 9.79991e-11 3.67746e-11 3.58344e-11 9.79991e-11 9.79991e-11 3.60161e-11 3.07317e-11 3.60682e-11 2.59334e-11 5.17415e-11 2.58794e-11 9.79991e-11 3.58236e-11 3.08537e-11 3.07317e-11 2.58794e-11 2.62053e-11 7.44925e-11 9.79991e-11 3.64989e-11 9.79991e-11 9.79991e-11 3.64554e-11 2.6482e-11 9.79991e-11 9.79991e-11 3.57722e-11 3.67915e-11 9.79991e-11 9.79991e-11 3.61212e-11 3.61258e-11 9.79991e-11 7.45984e-11 3.10401e-11 3.66405e-11 9.79991e-11 9.79991e-11 9.79991e-11 9.79991e-11 9.79991e-11 4.97749e-11 3.51139e-11 7.43128e-11 3.66892e-11 9.79991e-11 9.79991e-11 9.79991e-11 9.79991e-11 3.64594e-11 7.43374e-11 3.58958e-11 3.12302e-11 3.49045e-11 2.59334e-11 9.79991e-11 3.55624e-11 9.79991e-11 2.5931e-11 9.79991e-11 9.79991e-11 3.10401e-11 4.97749e-11 9.79991e-11 5.00616e-11 7.45079e-11 9.79991e-11 0.0400124 9.79991e-11 0.85315 9.79991e-11 2.95744e-11 9.79991e-11 9.79991e-11 3.08409e-11 9.79991e-11 3.11198e-11 3.64554e-11 9.79991e-11 3.10085e-11 2.60361e-11 9.79991e-11 3.51916e-11 2.95507e-11 9.79991e-11 2.6104e-11 2.58582e-11 3.54617e-11 9.79991e-11 4.86462e-11 3.12302e-11 1.94001e-11 2.62855e-11 3.52725e-11 3.13359e-11 9.79991e-11 3.63068e-11 3.10401e-11 3.50146e-11 3.56614e-11 9.79991e-11 2.59277e-11 3.65341e-11 3.53053e-11 1.94329e-11 0.010584 9.79991e-11 0.0776962 2.58387e-11 0.00587736 9.79991e-11 0.0126806 3.10401e-11 3.60853e-11 2.64474e-11 9.79991e-11 9.79991e-11 2.63588e-11 2.61787e-11 9.79991e-11 3.65341e-11 1.94288e-11 9.79991e-11 9.79991e-11 9.79991e-11 3.54075e-11 3.57404e-11 9.79991e-11 9.79991e-11 9.79991e-11 3.59336e-11 3.53053e-11 3.64102e-11 3.49608e-11 5.00355e-11 1.9534e-11 9.79991e-11 
