A 53 60 60 67 90 70 90 96 106 78 96 71 79 70 36 85 52 8 83 72 76 96 66 96 40 38 72 69 14 50 1 105 89 87 99 69 36 4 5 3 0 
G 4 5 3 7 0 21 14 9 5 9 10 18 12 2 36 7 0 0 2 9 4 2 4 0 5 3 0 0 6 4 0 3 0 0 1 0 0 43 0 0 1 
T 0 0 0 0 0 0 0 0 0 1 0 0 0 0 0 0 0 94 0 0 0 2 0 0 0 0 0 0 0 0 0 0 0 0 0 0 0 0 0 4 2 
C 0 5 0 0 0 1 5 0 0 0 1 0 3 0 1 0 0 0 0 0 16 0 0 0 0 0 0 0 0 0 0 0 0 0 0 0 0 0 0 0 0 
X 0 0 0 0 0 0 0 0 0 0 0 0 0 0 0 0 0 0 0 0 0 0 0 0 0 0 0 0 0 0 0 0 0 0 0 0 0 0 0 0 0 
