6 1704 2245 2256 2266 2267 2292 AAAAAC 41 0 0 3 0 5 11 9 0 12 0 16 38 20 0 23 21 26 0 30 20 33 11 40 10 44 16 54 17 59 21 61 0 62 0 67 0 68 27 74 11 81 0 82 0 86 0 93 0 96 0 104 0 110 0 114 0 117 14 121 0 124 0 128 13 131 0 135 26 149 0 157 0 163 15 166 0 208 0 241 0 246 0 
6 1704 2245 2256 2266 2267 2292 AAAAAT 41 0 0 3 0 5 0 9 10 12 0 16 0 20 0 23 0 26 0 30 0 33 0 40 0 44 0 54 0 59 0 61 0 62 0 67 0 68 0 74 0 81 0 82 0 86 0 93 0 96 0 104 0 110 0 114 0 117 0 121 10 124 0 128 0 131 0 135 0 149 0 157 12 163 0 166 0 208 0 241 0 246 0 
5 30 177 294 345 403 AGTGA 41 0 120 3 144 5 214 9 127 12 183 16 112 20 112 23 201 26 218 30 200 33 224 40 88 44 107 54 172 59 146 61 167 62 51 67 80 68 142 74 151 81 161 82 168 86 130 93 83 96 52 104 58 110 229 114 173 117 35 121 124 124 31 128 67 131 83 135 199 149 136 157 255 163 61 166 115 208 0 241 0 246 0 
5 30 177 294 345 403 GGTGA 41 0 18 3 0 5 0 9 0 12 0 16 50 20 0 23 17 26 0 30 0 33 0 40 14 44 16 54 12 59 26 61 0 62 0 67 0 68 26 74 0 81 0 82 0 86 0 93 10 96 0 104 0 110 0 114 0 117 19 121 0 124 0 128 34 131 44 135 10 149 0 157 0 163 27 166 0 208 0 241 0 246 0 
5 30 177 294 345 403 AGTAA 41 0 0 3 0 5 0 9 0 12 0 16 0 20 0 23 0 26 0 30 0 33 0 40 0 44 0 54 0 59 0 61 0 62 0 67 21 68 0 74 0 81 0 82 0 86 0 93 0 96 0 104 0 110 0 114 0 117 0 121 0 124 0 128 0 131 0 135 0 149 0 157 0 163 0 166 0 208 0 241 0 246 0 
5 30 177 294 345 403 GGGAA 41 0 0 3 0 5 0 9 0 12 0 16 0 20 0 23 0 26 0 30 0 33 0 40 0 44 0 54 0 59 0 61 0 62 0 67 18 68 0 74 0 81 0 82 0 86 0 93 0 96 0 104 0 110 0 114 0 117 0 121 0 124 0 128 0 131 0 135 0 149 0 157 0 163 0 166 0 208 0 241 0 246 0 
5 1704 2245 2256 2266 2267 AAAAA 41 0 0 3 0 5 14 9 0 12 0 16 15 20 13 23 13 26 12 30 17 33 20 40 0 44 15 54 12 59 11 61 0 62 0 67 0 68 0 74 0 81 0 82 16 86 16 93 20 96 0 104 0 110 0 114 11 117 10 121 0 124 0 128 0 131 0 135 15 149 24 157 0 163 0 166 0 208 0 241 0 246 0 
5 2245 2256 2266 2267 2292 GAAAC 41 0 699 3 203 5 65 9 379 12 0 16 82 20 132 23 181 26 75 30 312 33 221 40 139 44 298 54 239 59 106 61 445 62 10 67 16 68 223 74 742 81 51 82 76 86 17 93 0 96 0 104 0 110 0 114 0 117 0 121 42 124 0 128 382 131 0 135 15 149 0 157 0 163 0 166 0 208 0 241 0 246 0 
5 2245 2256 2266 2267 2292 GAAAT 41 0 1923 3 2307 5 404 9 1532 12 675 16 247 20 1060 23 2088 26 260 30 793 33 969 40 163 44 338 54 555 59 116 61 435 62 367 67 0 68 179 74 575 81 141 82 51 86 30 93 18 96 0 104 12 110 0 114 155 117 38 121 96 124 0 128 73 131 102 135 155 149 149 157 0 163 44 166 236 208 0 241 0 246 0 
5 2245 2256 2266 2267 2292 AAAAC 41 0 638 3 370 5 494 9 347 12 317 16 730 20 360 23 519 26 523 30 682 33 478 40 498 44 589 54 671 59 599 61 500 62 121 67 312 68 832 74 430 81 337 82 390 86 269 93 323 96 250 104 82 110 305 114 729 117 271 121 421 124 42 128 521 131 301 135 771 149 142 157 315 163 475 166 0 208 0 241 31 246 0 
5 2245 2256 2266 2267 2292 AAAAT 41 0 78 3 419 5 418 9 115 12 409 16 75 20 305 23 182 26 234 30 115 33 518 40 106 44 102 54 110 59 21 61 162 62 49 67 0 68 91 74 341 81 193 82 221 86 236 93 104 96 93 104 337 110 272 114 24 117 0 121 347 124 0 128 178 131 1861 135 34 149 477 157 679 163 54 166 415 208 0 241 0 246 0 
5 2245 2256 2266 2267 2292 GAGGT 41 0 105 3 50 5 0 9 0 12 54 16 16 20 0 23 42 26 13 30 0 33 0 40 0 44 0 54 22 59 0 61 0 62 0 67 0 68 29 74 0 81 0 82 0 86 0 93 0 96 0 104 0 110 0 114 0 117 0 121 0 124 0 128 0 131 0 135 0 149 0 157 0 163 0 166 0 208 0 241 0 246 0 
5 2245 2256 2266 2267 2292 GAGGC 41 0 0 3 0 5 0 9 0 12 0 16 13 20 0 23 0 26 0 30 0 33 0 40 24 44 0 54 0 59 0 61 0 62 0 67 0 68 0 74 0 81 0 82 0 86 0 93 0 96 0 104 0 110 0 114 0 117 0 121 0 124 0 128 0 131 0 135 0 149 0 157 0 163 0 166 0 208 0 241 0 246 0 
5 2245 2256 2266 2267 2292 GGGGT 41 0 0 3 0 5 0 9 0 12 0 16 0 20 22 23 0 26 0 30 0 33 0 40 0 44 0 54 0 59 0 61 0 62 0 67 803 68 0 74 0 81 0 82 0 86 0 93 0 96 0 104 0 110 0 114 0 117 0 121 0 124 0 128 0 131 0 135 0 149 0 157 0 163 0 166 0 208 0 241 0 246 0 
5 2245 2256 2266 2267 2292 GAAGT 41 0 0 3 0 5 0 9 0 12 0 16 0 20 0 23 0 26 0 30 43 33 0 40 0 44 0 54 0 59 10 61 0 62 0 67 0 68 0 74 0 81 0 82 0 86 0 93 0 96 0 104 0 110 0 114 0 117 0 121 0 124 0 128 0 131 0 135 0 149 0 157 0 163 0 166 0 208 0 241 0 246 0 
5 2245 2256 2266 2267 2292 GGAGT 41 0 0 3 0 5 0 9 0 12 0 16 0 20 0 23 0 26 0 30 0 33 0 40 0 44 0 54 0 59 0 61 0 62 19 67 0 68 0 74 0 81 0 82 0 86 0 93 0 96 0 104 0 110 0 114 0 117 0 121 13 124 0 128 0 131 0 135 0 149 0 157 0 163 0 166 0 208 0 241 0 246 0 
5 2245 2256 2266 2267 2292 AAGAC 41 0 0 3 0 5 0 9 0 12 0 16 0 20 0 23 0 26 0 30 0 33 0 40 0 44 0 54 0 59 0 61 0 62 27 67 0 68 0 74 0 81 0 82 0 86 0 93 0 96 0 104 0 110 0 114 0 117 0 121 0 124 0 128 0 131 0 135 0 149 0 157 0 163 0 166 0 208 0 241 0 246 0 
5 2245 2256 2266 2267 2292 GAGAT 41 0 0 3 0 5 0 9 0 12 0 16 0 20 0 23 0 26 0 30 0 33 0 40 0 44 0 54 0 59 0 61 0 62 0 67 0 68 0 74 0 81 0 82 0 86 0 93 0 96 0 104 0 110 0 114 0 117 0 121 0 124 0 128 0 131 0 135 0 149 37 157 0 163 0 166 0 208 0 241 0 246 0 
4 30 177 294 345 AGTG 41 0 175 3 168 5 234 9 266 12 219 16 225 20 166 23 254 26 335 30 261 33 343 40 122 44 188 54 218 59 215 61 258 62 20 67 127 68 197 74 229 81 211 82 283 86 211 93 172 96 164 104 200 110 143 114 261 117 81 121 256 124 0 128 143 131 108 135 340 149 207 157 286 163 91 166 108 208 0 241 0 246 0 
4 30 177 294 345 GGTG 41 0 0 3 0 5 0 9 0 12 0 16 76 20 0 23 16 26 0 30 16 33 0 40 38 44 0 54 0 59 37 61 0 62 0 67 0 68 31 74 0 81 10 82 0 86 0 93 13 96 0 104 0 110 0 114 0 117 23 121 0 124 0 128 39 131 29 135 23 149 0 157 0 163 58 166 0 208 0 241 0 246 0 
4 30 177 294 345 GGGA 41 0 0 3 0 5 0 9 0 12 0 16 0 20 0 23 0 26 0 30 0 33 0 40 0 44 0 54 0 59 0 61 0 62 0 67 44 68 0 74 0 81 0 82 0 86 0 93 0 96 0 104 0 110 0 114 0 117 0 121 0 124 0 128 0 131 0 135 0 149 0 157 0 163 0 166 0 208 0 241 0 246 0 
4 30 177 294 345 AGTA 41 0 0 3 0 5 0 9 0 12 0 16 0 20 0 23 0 26 0 30 0 33 0 40 0 44 0 54 0 59 0 61 0 62 0 67 32 68 0 74 0 81 0 82 0 86 0 93 0 96 0 104 0 110 0 114 0 117 0 121 0 124 0 128 0 131 0 135 0 149 0 157 0 163 0 166 0 208 0 241 0 246 0 
4 177 294 345 403 GTGA 41 0 484 3 768 5 514 9 528 12 709 16 1221 20 484 23 801 26 726 30 670 33 693 40 586 44 684 54 607 59 890 61 560 62 148 67 416 68 648 74 654 81 701 82 813 86 592 93 440 96 391 104 545 110 583 114 496 117 247 121 387 124 17 128 652 131 605 135 745 149 576 157 713 163 507 166 853 208 0 241 0 246 0 
4 177 294 345 403 GTGG 41 0 0 3 0 5 0 9 0 12 0 16 0 20 0 23 20 26 21 30 0 33 0 40 0 44 0 54 0 59 0 61 0 62 0 67 0 68 0 74 0 81 0 82 0 86 0 93 0 96 0 104 0 110 0 114 0 117 0 121 0 124 0 128 0 131 0 135 12 149 0 157 0 163 0 166 0 208 0 241 0 246 0 
4 177 294 345 403 ATGA 41 0 0 3 0 5 0 9 0 12 0 16 0 20 0 23 0 26 0 30 0 33 0 40 0 44 0 54 0 59 21 61 0 62 0 67 0 68 0 74 0 81 0 82 0 86 0 93 0 96 0 104 0 110 0 114 0 117 0 121 0 124 0 128 0 131 0 135 0 149 0 157 0 163 0 166 0 208 0 241 0 246 0 
4 177 294 345 403 GGAA 41 0 0 3 0 5 0 9 0 12 0 16 0 20 0 23 0 26 0 30 0 33 0 40 0 44 0 54 0 59 0 61 0 62 0 67 309 68 0 74 0 81 0 82 0 86 0 93 0 96 0 104 0 110 0 114 0 117 0 121 0 124 0 128 0 131 0 135 0 149 0 157 0 163 0 166 0 208 0 241 0 246 0 
4 177 294 345 403 GTAA 41 0 0 3 0 5 0 9 0 12 0 16 0 20 0 23 0 26 0 30 0 33 0 40 0 44 0 54 0 59 0 61 0 62 0 67 94 68 0 74 0 81 0 82 0 86 0 93 0 96 0 104 0 110 0 114 0 117 0 121 0 124 0 128 0 131 0 135 0 149 0 157 0 163 0 166 0 208 0 241 0 246 0 
4 177 294 345 403 AGAG 41 0 0 3 0 5 0 9 0 12 0 16 0 20 0 23 0 26 0 30 0 33 0 40 0 44 0 54 0 59 0 61 0 62 0 67 0 68 0 74 0 81 0 82 0 86 0 93 0 96 0 104 0 110 0 114 0 117 0 121 0 124 0 128 0 131 0 135 0 149 0 157 0 163 0 166 0 208 0 241 30 246 0 
4 177 294 345 403 GGAG 41 0 0 3 0 5 0 9 0 12 0 16 0 20 0 23 0 26 0 30 0 33 0 40 0 44 0 54 0 59 0 61 0 62 0 67 0 68 0 74 0 81 0 82 0 86 0 93 0 96 0 104 0 110 0 114 0 117 0 121 0 124 0 128 0 131 0 135 0 149 0 157 0 163 0 166 0 208 0 241 18 246 0 
4 294 345 403 948 TGAA 41 0 0 3 0 5 0 9 0 12 0 16 10 20 0 23 0 26 0 30 0 33 19 40 0 44 0 54 0 59 0 61 0 62 0 67 0 68 0 74 0 81 0 82 0 86 0 93 0 96 0 104 0 110 0 114 0 117 0 121 0 124 0 128 0 131 0 135 0 149 0 157 0 163 0 166 0 208 0 241 0 246 0 
4 1704 2245 2256 2266 AAAA 41 0 0 3 0 5 0 9 0 12 0 16 0 20 0 23 0 26 12 30 0 33 13 40 0 44 0 54 0 59 0 61 0 62 0 67 0 68 0 74 0 81 0 82 0 86 0 93 0 96 0 104 0 110 0 114 0 117 0 121 0 124 0 128 0 131 0 135 10 149 0 157 0 163 0 166 0 208 0 241 0 246 0 
4 2245 2256 2266 2267 AAAA 41 0 253 3 273 5 317 9 143 12 413 16 285 20 310 23 200 26 435 30 313 33 405 40 281 44 262 54 307 59 218 61 362 62 140 67 237 68 350 74 230 81 288 82 289 86 206 93 187 96 137 104 420 110 526 114 205 117 101 121 163 124 0 128 279 131 610 135 238 149 290 157 328 163 151 166 48 208 0 241 23 246 0 
4 2245 2256 2266 2267 GAAA 41 0 746 3 462 5 118 9 492 12 190 16 85 20 278 23 579 26 84 30 250 33 261 40 69 44 191 54 249 59 49 61 238 62 82 67 12 68 104 74 343 81 43 82 34 86 14 93 35 96 0 104 62 110 0 114 0 117 18 121 21 124 0 128 80 131 56 135 65 149 40 157 0 163 27 166 0 208 0 241 0 246 0 
4 2245 2256 2266 2267 GAGG 41 0 30 3 0 5 0 9 0 12 0 16 0 20 0 23 44 26 0 30 0 33 0 40 0 44 0 54 0 59 0 61 0 62 0 67 0 68 18 74 0 81 0 82 0 86 0 93 0 96 0 104 0 110 0 114 0 117 0 121 0 124 0 128 0 131 0 135 0 149 0 157 0 163 0 166 0 208 0 241 0 246 0 
4 2245 2256 2266 2267 GAAG 41 0 0 3 0 5 0 9 0 12 0 16 0 20 0 23 0 26 0 30 17 33 0 40 0 44 0 54 0 59 13 61 0 62 0 67 0 68 0 74 0 81 0 82 0 86 0 93 0 96 0 104 0 110 0 114 0 117 0 121 0 124 0 128 0 131 0 135 0 149 0 157 0 163 0 166 0 208 0 241 0 246 0 
4 2245 2256 2266 2267 GGAG 41 0 0 3 0 5 0 9 0 12 0 16 0 20 0 23 0 26 0 30 0 33 0 40 0 44 0 54 0 59 0 61 0 62 38 67 0 68 0 74 0 81 0 82 0 86 0 93 0 96 0 104 0 110 0 114 0 117 0 121 0 124 0 128 0 131 0 135 0 149 0 157 0 163 0 166 0 208 0 241 0 246 0 
4 2245 2256 2266 2267 GGGG 41 0 0 3 0 5 0 9 0 12 0 16 0 20 0 23 0 26 0 30 0 33 0 40 0 44 0 54 0 59 0 61 0 62 0 67 180 68 0 74 0 81 0 82 0 86 0 93 0 96 0 104 0 110 0 114 0 117 0 121 0 124 0 128 0 131 0 135 0 149 0 157 0 163 0 166 0 208 0 241 0 246 0 
4 2245 2256 2266 2267 GAGA 41 0 0 3 0 5 0 9 0 12 0 16 0 20 0 23 0 26 0 30 0 33 0 40 0 44 0 54 0 59 0 61 0 62 0 67 0 68 0 74 0 81 0 82 0 86 0 93 0 96 0 104 0 110 0 114 0 117 0 121 0 124 0 128 0 131 0 135 0 149 10 157 0 163 0 166 0 208 0 241 0 246 0 
4 2256 2266 2267 2292 AAAC 41 0 15 3 0 5 21 9 17 12 0 16 16 20 33 23 10 26 32 30 32 33 26 40 15 44 23 54 18 59 25 61 29 62 0 67 11 68 52 74 27 81 0 82 14 86 0 93 11 96 0 104 10 110 26 114 30 117 0 121 40 124 0 128 26 131 56 135 18 149 0 157 0 163 13 166 0 208 0 241 0 246 0 
4 2256 2266 2267 2292 AAAT 41 0 16 3 24 5 25 9 14 12 49 16 0 20 18 23 37 26 0 30 22 33 23 40 0 44 0 54 11 59 0 61 0 62 0 67 0 68 0 74 14 81 15 82 0 86 27 93 0 96 0 104 0 110 10 114 10 117 0 121 0 124 0 128 0 131 54 135 0 149 14 157 27 163 0 166 0 208 0 241 0 246 0 
4 2256 2266 2267 2292 GGGT 41 0 0 3 0 5 0 9 0 12 0 16 0 20 0 23 0 26 0 30 0 33 0 40 0 44 0 54 0 59 0 61 0 62 0 67 12 68 0 74 0 81 0 82 0 86 0 93 0 96 0 104 0 110 0 114 0 117 0 121 0 124 0 128 0 131 0 135 0 149 0 157 0 163 0 166 0 208 0 241 0 246 0 
3 30 177 294 AGT 41 0 84 3 162 5 209 9 142 12 313 16 106 20 123 23 259 26 278 30 192 33 282 40 145 44 142 54 242 59 161 61 149 62 42 67 109 68 137 74 213 81 143 82 184 86 197 93 67 96 92 104 105 110 73 114 136 117 61 121 132 124 0 128 101 131 46 135 303 149 159 157 234 163 52 166 112 208 70 241 0 246 0 
3 30 177 294 GGT 41 0 0 3 0 5 0 9 0 12 0 16 49 20 0 23 14 26 0 30 0 33 0 40 57 44 11 54 0 59 14 61 11 62 0 67 0 68 22 74 0 81 0 82 0 86 0 93 19 96 0 104 0 110 0 114 0 117 19 121 0 124 0 128 26 131 32 135 13 149 0 157 0 163 29 166 0 208 0 241 0 246 0 
3 30 177 294 GGG 41 0 0 3 0 5 0 9 0 12 0 16 0 20 0 23 0 26 0 30 0 33 0 40 0 44 0 54 0 59 0 61 0 62 0 67 27 68 0 74 0 81 0 82 0 86 0 93 0 96 0 104 0 110 0 114 0 117 0 121 0 124 0 128 0 131 0 135 0 149 0 157 0 163 0 166 0 208 0 241 0 246 0 
3 177 294 345 GTG 41 0 673 3 1190 5 994 9 643 12 951 16 1523 20 742 23 1007 26 1361 30 880 33 1137 40 1053 44 1221 54 938 59 1062 61 1145 62 329 67 652 68 1162 74 1103 81 1034 82 1228 86 1063 93 906 96 753 104 824 110 820 114 693 117 333 121 634 124 0 128 1244 131 693 135 1235 149 1055 157 911 163 742 166 963 208 0 241 0 246 0 
3 177 294 345 ATG 41 0 0 3 0 5 0 9 0 12 0 16 0 20 0 23 0 26 0 30 0 33 0 40 0 44 0 54 0 59 22 61 20 62 0 67 0 68 0 74 0 81 0 82 27 86 0 93 0 96 0 104 0 110 0 114 0 117 0 121 0 124 0 128 0 131 0 135 0 149 0 157 0 163 0 166 0 208 0 241 0 246 0 
3 177 294 345 GGA 41 0 0 3 0 5 0 9 0 12 0 16 0 20 0 23 0 26 0 30 0 33 0 40 0 44 0 54 0 59 0 61 0 62 0 67 366 68 0 74 0 81 0 82 0 86 0 93 0 96 0 104 0 110 0 114 0 117 0 121 0 124 0 128 0 131 0 135 0 149 0 157 0 163 0 166 0 208 0 241 13 246 0 
3 177 294 345 GTA 41 0 0 3 0 5 0 9 0 12 0 16 0 20 0 23 0 26 0 30 0 33 0 40 0 44 0 54 0 59 0 61 0 62 0 67 126 68 0 74 0 81 0 82 0 86 0 93 0 96 0 104 0 110 0 114 0 117 0 121 0 124 0 128 0 131 0 135 0 149 0 157 0 163 0 166 0 208 0 241 0 246 0 
3 177 294 345 AGA 41 0 0 3 0 5 0 9 0 12 0 16 0 20 0 23 0 26 0 30 0 33 0 40 0 44 0 54 0 59 0 61 0 62 0 67 0 68 0 74 0 81 0 82 0 86 0 93 0 96 0 104 0 110 0 114 0 117 0 121 0 124 0 128 0 131 0 135 0 149 0 157 0 163 0 166 0 208 0 241 35 246 0 
3 294 345 403 TGA 41 0 435 3 713 5 804 9 572 12 730 16 692 20 587 23 819 26 808 30 838 33 919 40 496 44 621 54 714 59 662 61 677 62 119 67 414 68 760 74 586 81 678 82 723 86 618 93 574 96 227 104 539 110 402 114 491 117 255 121 380 124 0 128 543 131 453 135 867 149 554 157 746 163 393 166 575 208 0 241 0 246 0 
3 294 345 403 TGG 41 0 0 3 0 5 0 9 0 12 15 16 0 20 0 23 12 26 28 30 0 33 0 40 0 44 0 54 0 59 0 61 0 62 0 67 0 68 0 74 0 81 0 82 0 86 0 93 0 96 0 104 0 110 0 114 0 117 0 121 0 124 0 128 0 131 0 135 0 149 0 157 0 163 0 166 0 208 0 241 0 246 0 
3 294 345 403 TTA 41 0 0 3 0 5 0 9 0 12 0 16 0 20 0 23 0 26 0 30 0 33 0 40 0 44 0 54 0 59 0 61 0 62 10 67 0 68 0 74 0 81 0 82 0 86 0 93 0 96 0 104 0 110 0 114 0 117 0 121 0 124 0 128 0 131 0 135 0 149 0 157 0 163 0 166 0 208 0 241 0 246 0 
3 294 345 403 GAA 41 0 0 3 0 5 0 9 0 12 0 16 0 20 0 23 0 26 0 30 0 33 0 40 0 44 0 54 0 59 0 61 0 62 0 67 244 68 0 74 0 81 0 82 0 86 0 93 0 96 0 104 0 110 0 114 0 117 0 121 0 124 0 128 0 131 0 135 0 149 0 157 0 163 0 166 0 208 0 241 0 246 0 
3 294 345 403 TAA 41 0 0 3 0 5 0 9 0 12 0 16 0 20 0 23 0 26 0 30 0 33 0 40 0 44 0 54 0 59 0 61 0 62 0 67 77 68 0 74 0 81 0 82 0 86 0 93 0 96 0 104 0 110 0 114 0 117 0 121 0 124 0 128 0 131 0 135 0 149 0 157 0 163 0 166 0 208 0 241 0 246 0 
3 345 403 948 GAA 41 0 13 3 0 5 15 9 31 12 0 16 34 20 22 23 24 26 22 30 18 33 11 40 16 44 16 54 14 59 17 61 14 62 0 67 0 68 15 74 34 81 17 82 15 86 0 93 11 96 0 104 15 110 0 114 13 117 0 121 0 124 0 128 12 131 0 135 19 149 0 157 12 163 14 166 0 208 0 241 0 246 0 
3 1704 2245 2256 AAA 41 0 0 3 0 5 0 9 0 12 0 16 0 20 0 23 0 26 0 30 0 33 0 40 0 44 0 54 0 59 0 61 0 62 0 67 0 68 0 74 0 81 0 82 0 86 0 93 0 96 0 104 0 110 0 114 0 117 0 121 0 124 0 128 0 131 0 135 0 149 0 157 0 163 10 166 0 208 0 241 0 246 0 
3 2245 2256 2266 AAA 41 0 12 3 37 5 12 9 0 12 15 16 13 20 10 23 12 26 15 30 16 33 21 40 21 44 12 54 0 59 11 61 0 62 0 67 11 68 10 74 17 81 11 82 15 86 13 93 18 96 0 104 10 110 0 114 0 117 0 121 16 124 0 128 21 131 34 135 12 149 14 157 15 163 0 166 0 208 0 241 0 246 0 
3 2245 2256 2266 GAA 41 0 42 3 24 5 12 9 26 12 10 16 0 20 15 23 29 26 0 30 0 33 15 40 0 44 14 54 16 59 0 61 0 62 0 67 0 68 11 74 20 81 0 82 0 86 0 93 0 96 0 104 0 110 0 114 0 117 0 121 0 124 0 128 0 131 0 135 0 149 0 157 0 163 0 166 0 208 0 241 0 246 0 
3 2245 2256 2266 GGG 41 0 0 3 0 5 0 9 0 12 0 16 0 20 0 23 0 26 0 30 0 33 0 40 0 44 0 54 0 59 0 61 0 62 0 67 16 68 0 74 0 81 0 82 0 86 0 93 0 96 0 104 0 110 0 114 0 117 0 121 0 124 0 128 0 131 0 135 0 149 0 157 0 163 0 166 0 208 0 241 0 246 0 
3 2256 2266 2267 AAA 41 0 10 3 47 5 0 9 13 12 0 16 0 20 14 23 16 26 12 30 18 33 17 40 10 44 0 54 12 59 0 61 0 62 0 67 11 68 20 74 15 81 15 82 0 86 0 93 0 96 0 104 0 110 18 114 0 117 0 121 0 124 0 128 0 131 34 135 0 149 16 157 14 163 0 166 0 208 0 241 0 246 0 
3 2266 2267 2292 AAT 41 0 75 3 60 5 16 9 41 12 51 16 0 20 45 23 48 26 11 30 13 33 34 40 0 44 12 54 10 59 0 61 15 62 10 67 0 68 0 74 24 81 11 82 0 86 19 93 0 96 0 104 32 110 12 114 0 117 0 121 39 124 0 128 14 131 76 135 0 149 22 157 30 163 0 166 17 208 0 241 0 246 0 
3 2266 2267 2292 AAC 41 0 22 3 0 5 19 9 27 12 18 16 35 20 19 23 17 26 57 30 23 33 22 40 37 44 25 54 38 59 27 61 39 62 0 67 0 68 49 74 41 81 14 82 18 86 12 93 44 96 0 104 0 110 0 114 19 117 0 121 10 124 0 128 36 131 16 135 31 149 0 157 0 163 17 166 0 208 0 241 0 246 0 
3 2266 2267 2292 GGT 41 0 0 3 0 5 0 9 0 12 0 16 0 20 0 23 0 26 0 30 0 33 0 40 0 44 0 54 0 59 0 61 0 62 0 67 12 68 0 74 0 81 0 82 0 86 0 93 0 96 0 104 0 110 0 114 0 117 0 121 0 124 0 128 0 131 0 135 0 149 0 157 0 163 0 166 0 208 0 241 0 246 0 
2 30 177 AG 41 0 429 3 822 5 623 9 408 12 743 16 405 20 454 23 533 26 659 30 548 33 813 40 280 44 409 54 612 59 407 61 536 62 270 67 309 68 458 74 507 81 460 82 626 86 415 93 401 96 185 104 308 110 528 114 505 117 146 121 372 124 36 128 390 131 478 135 715 149 547 157 692 163 189 166 417 208 0 241 0 246 0 
2 30 177 GG 41 0 40 3 0 5 0 9 0 12 0 16 113 20 0 23 34 26 0 30 56 33 0 40 101 44 41 54 10 59 63 61 14 62 0 67 108 68 76 74 0 81 10 82 17 86 0 93 28 96 0 104 0 110 0 114 0 117 36 121 0 124 0 128 65 131 103 135 41 149 0 157 0 163 70 166 0 208 0 241 0 246 0 
2 30 177 GA 41 0 0 3 0 5 0 9 0 12 0 16 0 20 0 23 0 26 0 30 0 33 0 40 0 44 0 54 0 59 0 61 0 62 0 67 0 68 0 74 0 81 0 82 0 86 0 93 0 96 0 104 0 110 0 114 0 117 0 121 0 124 0 128 0 131 0 135 0 149 0 157 0 163 0 166 0 208 0 241 10 246 0 
2 177 294 GT 41 0 283 3 268 5 444 9 398 12 540 16 652 20 363 23 522 26 498 30 371 33 533 40 371 44 460 54 402 59 477 61 411 62 154 67 333 68 474 74 375 81 416 82 505 86 314 93 302 96 224 104 290 110 367 114 301 117 184 121 184 124 0 128 396 131 331 135 571 149 529 157 400 163 263 166 443 208 0 241 0 246 0 
2 177 294 AT 41 0 0 3 0 5 0 9 0 12 0 16 0 20 0 23 0 26 0 30 0 33 0 40 0 44 0 54 0 59 12 61 0 62 0 67 0 68 0 74 0 81 0 82 0 86 0 93 0 96 0 104 0 110 0 114 0 117 0 121 0 124 0 128 0 131 0 135 0 149 0 157 0 163 0 166 0 208 0 241 0 246 0 
2 177 294 GG 41 0 0 3 0 5 0 9 0 12 0 16 0 20 0 23 0 26 0 30 0 33 0 40 0 44 0 54 0 59 0 61 0 62 0 67 231 68 0 74 0 81 0 82 0 86 0 93 0 96 0 104 0 110 0 114 0 117 0 121 0 124 0 128 0 131 0 135 0 149 0 157 0 163 0 166 0 208 0 241 0 246 0 
2 177 294 AG 41 0 0 3 0 5 0 9 0 12 0 16 0 20 0 23 0 26 0 30 0 33 0 40 0 44 0 54 0 59 0 61 0 62 0 67 0 68 0 74 0 81 0 82 0 86 0 93 0 96 0 104 0 110 0 114 0 117 0 121 0 124 0 128 0 131 0 135 0 149 0 157 0 163 0 166 0 208 0 241 17 246 0 
2 294 345 TG 41 0 365 3 967 5 604 9 365 12 463 16 470 20 466 23 649 26 716 30 497 33 594 40 431 44 491 54 449 59 437 61 613 62 184 67 298 68 558 74 432 81 449 82 481 86 423 93 447 96 251 104 277 110 385 114 329 117 115 121 163 124 0 128 493 131 327 135 498 149 516 157 464 163 264 166 609 208 26 241 0 246 0 
2 294 345 TA 41 0 0 3 0 5 0 9 0 12 0 16 0 20 0 23 0 26 0 30 0 33 0 40 0 44 0 54 0 59 0 61 0 62 0 67 55 68 0 74 0 81 0 82 0 86 0 93 0 96 0 104 0 110 0 114 0 117 0 121 0 124 0 128 0 131 0 135 0 149 0 157 0 163 0 166 0 208 0 241 0 246 0 
2 294 345 GA 41 0 0 3 0 5 0 9 0 12 0 16 0 20 0 23 0 26 0 30 0 33 0 40 0 44 0 54 0 59 0 61 0 62 0 67 106 68 0 74 0 81 0 82 0 86 0 93 0 96 0 104 0 110 0 114 0 117 0 121 0 124 0 128 0 131 0 135 0 149 0 157 0 163 0 166 0 208 0 241 20 246 0 
2 345 403 GA 41 0 414 3 505 5 706 9 885 12 747 16 1647 20 823 23 767 26 1076 30 790 33 916 40 830 44 892 54 712 59 1110 61 810 62 192 67 489 68 867 74 988 81 927 82 1310 86 858 93 686 96 563 104 569 110 885 114 792 117 353 121 535 124 63 128 1051 131 532 135 1032 149 816 157 1099 163 631 166 875 208 0 241 0 246 0 
2 345 403 AA 41 0 0 3 0 5 0 9 0 12 0 16 0 20 10 23 0 26 0 30 0 33 0 40 0 44 0 54 0 59 0 61 0 62 0 67 411 68 0 74 0 81 0 82 0 86 0 93 0 96 0 104 0 110 0 114 0 117 0 121 0 124 0 128 0 131 0 135 0 149 0 157 0 163 0 166 0 208 0 241 0 246 0 
2 345 403 GG 41 0 0 3 0 5 0 9 0 12 0 16 0 20 0 23 0 26 18 30 0 33 18 40 0 44 0 54 0 59 0 61 0 62 0 67 0 68 0 74 0 81 0 82 0 86 17 93 12 96 0 104 0 110 0 114 0 117 0 121 0 124 0 128 0 131 0 135 0 149 0 157 0 163 0 166 0 208 0 241 0 246 0 
2 345 403 AG 41 0 0 3 0 5 0 9 0 12 0 16 0 20 0 23 0 26 0 30 0 33 0 40 0 44 0 54 0 59 0 61 0 62 0 67 0 68 0 74 0 81 0 82 0 86 0 93 0 96 0 104 0 110 0 114 0 117 0 121 0 124 0 128 0 131 0 135 0 149 0 157 0 163 0 166 0 208 0 241 63 246 0 
2 403 948 AA 41 0 15 3 0 5 17 9 25 12 12 16 27 20 0 23 10 26 21 30 20 33 31 40 16 44 13 54 17 59 17 61 28 62 0 67 0 68 27 74 13 81 21 82 16 86 11 93 12 96 0 104 0 110 27 114 0 117 0 121 0 124 0 128 14 131 0 135 42 149 34 157 11 163 0 166 0 208 0 241 0 246 0 
2 948 1704 AA 41 0 80 3 44 5 49 9 38 12 38 16 33 20 22 23 53 26 59 30 55 33 53 40 38 44 56 54 32 59 50 61 38 62 0 67 21 68 51 74 37 81 30 82 33 86 21 93 36 96 10 104 14 110 39 114 23 117 0 121 11 124 0 128 27 131 13 135 50 149 31 157 34 163 0 166 25 208 0 241 0 246 0 
2 948 1704 AG 41 0 0 3 0 5 0 9 0 12 0 16 0 20 0 23 0 26 0 30 0 33 0 40 0 44 0 54 0 59 0 61 0 62 0 67 10 68 0 74 0 81 0 82 0 86 0 93 0 96 0 104 0 110 0 114 0 117 0 121 0 124 0 128 0 131 0 135 0 149 0 157 0 163 0 166 0 208 0 241 0 246 0 
2 2245 2256 AA 41 0 30 3 52 5 70 9 28 12 142 16 64 20 61 23 78 26 79 30 88 33 110 40 66 44 94 54 73 59 69 61 93 62 45 67 56 68 75 74 56 81 76 82 58 86 56 93 67 96 87 104 109 110 114 114 19 117 20 121 30 124 0 128 56 131 166 135 55 149 54 157 104 163 65 166 0 208 0 241 0 246 0 
2 2245 2256 GA 41 0 180 3 39 5 44 9 48 12 83 16 36 20 59 23 135 26 29 30 40 33 71 40 32 44 30 54 79 59 0 61 18 62 0 67 0 68 65 74 22 81 0 82 0 86 0 93 32 96 0 104 0 110 0 114 22 117 0 121 0 124 0 128 13 131 0 135 21 149 0 157 0 163 0 166 0 208 0 241 0 246 0 
2 2245 2256 GG 41 0 0 3 0 5 0 9 0 12 0 16 0 20 0 23 0 26 0 30 0 33 0 40 0 44 0 54 0 59 0 61 0 62 0 67 127 68 0 74 0 81 0 82 0 86 0 93 0 96 0 104 0 110 0 114 0 117 0 121 0 124 0 128 0 131 0 135 0 149 0 157 0 163 0 166 0 208 0 241 0 246 0 
2 2256 2266 AA 41 0 10 3 0 5 0 9 0 12 0 16 0 20 0 23 0 26 0 30 0 33 0 40 0 44 0 54 0 59 0 61 0 62 0 67 0 68 0 74 0 81 0 82 0 86 0 93 0 96 0 104 0 110 0 114 0 117 0 121 0 124 0 128 0 131 10 135 0 149 0 157 0 163 0 166 0 208 0 241 0 246 0 
2 2266 2267 AA 41 0 36 3 30 5 16 9 27 12 30 16 22 20 23 23 30 26 23 30 19 33 15 40 18 44 13 54 17 59 10 61 17 62 11 67 16 68 17 74 24 81 12 82 16 86 0 93 21 96 11 104 0 110 20 114 0 117 0 121 0 124 0 128 15 131 39 135 17 149 15 157 13 163 13 166 0 208 0 241 0 246 0 
2 2267 2292 AT 41 0 0 3 0 5 0 9 11 12 0 16 0 20 0 23 0 26 0 30 0 33 0 40 0 44 0 54 0 59 0 61 0 62 0 67 0 68 0 74 0 81 0 82 0 86 0 93 0 96 0 104 0 110 0 114 0 117 0 121 0 124 0 128 0 131 0 135 0 149 0 157 0 163 0 166 0 208 0 241 0 246 0 
2 2267 2292 AC 41 0 0 3 0 5 0 9 0 12 0 16 0 20 0 23 0 26 0 30 0 33 0 40 0 44 0 54 0 59 0 61 0 62 0 67 0 68 0 74 0 81 0 82 0 86 0 93 0 96 0 104 0 110 0 114 0 117 0 121 0 124 0 128 10 131 0 135 0 149 0 157 0 163 0 166 0 208 0 241 0 246 0 
1 30 A 41 0 561 3 334 5 145 9 343 12 246 16 201 20 274 23 532 26 153 30 312 33 339 40 177 44 257 54 259 59 135 61 274 62 61 67 398 68 132 74 244 81 113 82 131 86 66 93 51 96 0 104 47 110 50 114 90 117 0 121 88 124 0 128 154 131 707 135 82 149 133 157 101 163 28 166 59 208 0 241 11 246 0 
1 30 C 41 0 51 3 0 5 0 9 0 12 14 16 15 20 0 23 57 26 0 30 14 33 0 40 11 44 20 54 28 59 11 61 0 62 0 67 0 68 49 74 0 81 0 82 0 86 0 93 29 96 0 104 0 110 15 114 27 117 29 121 0 124 0 128 16 131 26 135 37 149 0 157 0 163 0 166 0 208 0 241 0 246 0 
1 30 G 41 0 0 3 0 5 0 9 0 12 0 16 13 20 0 23 0 26 0 30 0 33 0 40 19 44 0 54 0 59 0 61 0 62 0 67 15 68 0 74 0 81 0 82 0 86 0 93 0 96 0 104 0 110 0 114 0 117 0 121 0 124 0 128 0 131 10 135 0 149 0 157 0 163 0 166 0 208 0 241 0 246 0 
1 177 G 41 0 563 3 457 5 454 9 240 12 413 16 628 20 340 23 464 26 455 30 526 33 586 40 404 44 415 54 397 59 460 61 413 62 171 67 730 68 491 74 384 81 417 82 522 86 329 93 353 96 371 104 379 110 311 114 328 117 160 121 453 124 0 128 502 131 1403 135 560 149 283 157 476 163 494 166 247 208 0 241 0 246 0 
1 177 A 41 0 0 3 0 5 0 9 0 12 0 16 0 20 0 23 0 26 0 30 0 33 0 40 0 44 0 54 0 59 0 61 12 62 0 67 0 68 0 74 0 81 0 82 0 86 0 93 0 96 0 104 0 110 0 114 0 117 0 121 0 124 0 128 0 131 0 135 0 149 0 157 0 163 0 166 0 208 0 241 25 246 21 
1 294 T 41 0 100 3 129 5 172 9 92 12 147 16 133 20 103 23 151 26 263 30 153 33 185 40 124 44 159 54 139 59 188 61 193 62 12 67 110 68 221 74 143 81 143 82 173 86 138 93 115 96 136 104 208 110 72 114 163 117 41 121 108 124 0 128 109 131 75 135 167 149 154 157 176 163 91 166 195 208 0 241 0 246 0 
1 294 G 41 0 0 3 0 5 0 9 0 12 0 16 0 20 0 23 0 26 0 30 0 33 0 40 0 44 0 54 0 59 0 61 0 62 0 67 64 68 0 74 0 81 0 82 0 86 0 93 0 96 0 104 0 110 0 114 0 117 0 121 0 124 0 128 0 131 0 135 0 149 0 157 0 163 0 166 0 208 0 241 0 246 0 
1 345 G 41 0 22 3 29 5 53 9 45 12 43 16 98 20 87 23 56 26 148 30 83 33 90 40 50 44 50 54 52 59 100 61 64 62 0 67 37 68 53 74 92 81 73 82 123 86 57 93 69 96 23 104 34 110 39 114 40 117 43 121 32 124 0 128 95 131 46 135 71 149 89 157 108 163 47 166 38 208 0 241 0 246 0 
1 345 A 41 0 0 3 0 5 0 9 0 12 0 16 0 20 0 23 0 26 0 30 0 33 0 40 0 44 0 54 0 59 0 61 0 62 0 67 20 68 0 74 0 81 0 82 0 86 0 93 0 96 0 104 0 110 0 114 0 117 0 121 0 124 0 128 0 131 0 135 0 149 0 157 0 163 0 166 0 208 0 241 0 246 0 
1 403 A 41 0 437 3 545 5 713 9 503 12 787 16 762 20 557 23 758 26 797 30 829 33 770 40 588 44 687 54 596 59 677 61 574 62 143 67 555 68 718 74 644 81 605 82 697 86 484 93 416 96 426 104 380 110 597 114 429 117 255 121 450 124 40 128 452 131 467 135 788 149 568 157 730 163 406 166 449 208 13 241 0 246 0 
1 403 G 41 0 0 3 0 5 0 9 0 12 15 16 0 20 0 23 0 26 13 30 0 33 16 40 0 44 11 54 0 59 0 61 0 62 0 67 0 68 0 74 0 81 0 82 0 86 0 93 0 96 0 104 0 110 0 114 25 117 0 121 0 124 0 128 0 131 0 135 0 149 0 157 18 163 0 166 0 208 0 241 44 246 0 
1 948 A 41 0 4394 3 5983 5 6829 9 6058 12 6410 16 5994 20 4509 23 7180 26 7232 30 7079 33 7524 40 6172 44 7111 54 6654 59 6732 61 7230 62 1508 67 4223 68 7226 74 6270 81 4980 82 5415 86 5063 93 4355 96 3067 104 4303 110 6178 114 5054 117 2110 121 3803 124 93 128 4703 131 4402 135 6225 149 6352 157 5427 163 3184 166 4463 208 31 241 0 246 0 
1 948 G 41 0 0 3 0 5 0 9 0 12 0 16 0 20 0 23 0 26 0 30 0 33 0 40 0 44 0 54 0 59 0 61 0 62 0 67 0 68 0 74 0 81 0 82 0 86 0 93 0 96 0 104 0 110 0 114 0 117 0 121 0 124 0 128 0 131 0 135 0 149 0 157 0 163 0 166 0 208 0 241 188 246 0 
1 1704 A 41 0 4280 3 5360 5 6002 9 4608 12 7228 16 7332 20 4677 23 6074 26 7144 30 6143 33 6988 40 5977 44 6242 54 5201 59 7061 61 6686 62 1655 67 4236 68 7302 74 6106 81 5639 82 6576 86 5925 93 5291 96 3016 104 4426 110 6254 114 4865 117 2239 121 4332 124 188 128 5832 131 4163 135 7174 149 6080 157 6009 163 4138 166 5025 208 102 241 12 246 0 
1 1704 G 41 0 0 3 0 5 0 9 0 12 264 16 0 20 0 23 0 26 104 30 176 33 0 40 0 44 68 54 110 59 0 61 0 62 0 67 1485 68 338 74 0 81 0 82 0 86 0 93 0 96 0 104 0 110 0 114 721 117 0 121 0 124 0 128 0 131 0 135 0 149 0 157 0 163 0 166 0 208 0 241 312 246 0 
1 2245 G 41 0 18 3 12 5 0 9 0 12 0 16 13 20 11 23 19 26 0 30 11 33 16 40 0 44 0 54 0 59 0 61 0 62 28 67 16 68 0 74 11 81 0 82 0 86 0 93 0 96 0 104 0 110 0 114 0 117 0 121 0 124 0 128 0 131 0 135 0 149 0 157 0 163 0 166 0 208 0 241 0 246 0 
1 2245 A 41 0 57 3 11 5 80 9 21 12 96 16 45 20 42 23 71 26 57 30 78 33 73 40 42 44 53 54 72 59 52 61 71 62 12 67 39 68 71 74 91 81 53 82 28 86 22 93 33 96 76 104 29 110 60 114 42 117 19 121 36 124 0 128 46 131 195 135 76 149 73 157 53 163 31 166 43 208 0 241 0 246 0 
1 2256 A 41 0 0 3 0 5 0 9 0 12 0 16 0 20 0 23 0 26 10 30 0 33 0 40 0 44 0 54 0 59 0 61 0 62 0 67 0 68 0 74 0 81 0 82 0 86 0 93 0 96 0 104 0 110 0 114 0 117 0 121 0 124 0 128 0 131 19 135 0 149 0 157 0 163 0 166 0 208 0 241 0 246 0 
1 2292 T 41 0 11 3 0 5 0 9 0 12 0 16 0 20 12 23 0 26 11 30 0 33 19 40 0 44 0 54 0 59 0 61 0 62 0 67 0 68 0 74 0 81 0 82 0 86 20 93 0 96 0 104 36 110 0 114 0 117 0 121 0 124 0 128 0 131 22 135 0 149 28 157 0 163 0 166 0 208 0 241 0 246 0 
1 2292 C 41 0 0 3 0 5 23 9 13 12 0 16 18 20 0 23 49 26 18 30 19 33 22 40 19 44 20 54 30 59 15 61 30 62 0 67 0 68 24 74 0 81 0 82 0 86 0 93 0 96 0 104 0 110 32 114 16 117 0 121 0 124 0 128 0 131 16 135 31 149 0 157 0 163 0 166 0 208 0 241 0 246 0 
